[
  {
    "name" : "4suite",
    "fullname" : "4suite",
    "description" : "a library of integrated tools for XML and RDF processing.",
    "homepage" : "http://4suite.org/index.xhtml",
    "contact" : "Thomas Doherty t.doherty@physics.gla.ac.uk",
    "project" : "None",
    "category" : "XML",
    "language" : "Python",
    "license" : "4SUITE",
  },
  {
    "name" : "COOL",
    "fullname" : "COOL",
    "description" : "The conditions database project of LCG AA",
    "homepage" : "http://lcgapp.cern.ch/project/CondDB",
    "contact" : "Andrea Valassi andrea.valassi@cern.ch",
    "project" : "true",
    "category" : "IO",
    "language" : "Cpp",
    "license" : "LCGAA",
  },
  {
    "name" : "CORAL",
    "fullname" : "CORAL",
    "description" : "Provides functionality for accessing data in relational databases using a C++ and SQL-free API",
    "homepage" : "http://pool.cern.ch/coral/",
    "contact" : "Andrea Valassi andrea.valassi@cern.ch",
    "project" : "true",
    "category" : "IO",
    "language" : "Cpp",
    "license" : "LCGAA",
  },
  {
    "name" : "LCGCMT",
    "fullname" : "LCGCMT",
    "description" : "the configuration database for LCG/AA projects and external software.",
    "homepage" : "https://twiki.cern.ch/twiki/bin/view/SPI/LcgConfigurations",
    "contact" : "Patricia Mendez patricia.mendez@cern.ch",
    "project" : "true",
    "category" : "Tool",
    "language" : "Other",
    "license" : "LGPL",
  },
  {
    "name" : "RELAX",
    "fullname" : "RELAX",
    "description" : "A set of Reflex libraries for the most common used general data types in LCG",
    "homepage" : "https://twiki.cern.ch/twiki/bin/view/LCG/RELAX",
    "contact" : "Pere Mato pere.mato@cern.ch",
    "project" : "true",
    "category" : "Tool",
    "language" : "Cpp",
    "license" : "LCGAA",
  },
  {
    "name" : "ROOT",
    "fullname" : "ROOT",
    "description" : "An object oriented data analysis framework",
    "homepage" : "http://root.cern.ch",
    "contact" : "Rene Brun rene.brun@cern.ch",
    "project" : "true",
    "category" : "Tool",
    "language" : "Cpp",
    "license" : "LGPL",
  },
  {
    "name" : "AIDA",
    "fullname" : "AIDA",
    "description" : "Abstract interfaces for common physics analysis objects, such as histograms, ntuples, fitters, IO",
    "homepage" : "http://aida.freehep.org",
    "contact" : "Lorenzo Moneta Lorenzo.Moneta@cern.ch",
    "project" : "None",
    "category" : "Math",
    "language" : "Cpp",
    "license" : "LGPL",
  },
  {
    "name" : "blas",
    "fullname" : "blas",
    "description" : "a library to perform basic linear algebra operations",
    "homepage" : "http://www.netlib.org/blas/",
    "contact" : "Sebastien Binet binet@cern.ch",
    "project" : "None",
    "category" : "Math",
    "language" : "Fortran",
    "license" : "BLAS",
  },
  {
    "name" : "Boost",
    "fullname" : "Boost",
    "description" : "A collection of libraries for different purposes such as I/O, Math, meta programming, etc.",
    "homepage" : "http://www.boost.org",
    "contact" : "Stefan Roiser stefan.roiser@cern.ch",
    "project" : "None",
    "category" : "Tool",
    "language" : "Cpp",
    "license" : "BOOST",
  },
  {
    "name" : "CASTOR",
    "fullname" : "CASTOR",
    "description" : "A hierarchical storage management system",
    "homepage" : "http://castor.web.cern.ch/castor",
    "contact" : "Sebastien Ponce sebastien.ponce@cern.ch",
    "project" : "None",
    "category" : "IO",
    "language" : "Cpp",
    "license" : "UNKNOWN",
  },
  {
    "name" : "CMake",
    "fullname" : "CMake",
    "description" : "a cross-platform, open-source make system",
    "homepage" : "http://www.cmake.org",
    "contact" : "Patricia Mendez patricia.mendez@cern.ch",
    "project" : "false",
    "category" : "Tool",
    "language" : "C",
    "license" : "CMAKE",
  },
  {
    "name" : "coin3d",
    "fullname" : "coin3d",
    "description" : "A high-level 3D graphics toolkit for OpenGL based visualization",
    "homepage" : "http://coin3d.org/",
    "contact" : "Thomas Kittelmann thomas.kittelmann@cern.ch",
    "project" : "None",
    "category" : "Graphics",
    "language" : "Cpp",
    "license" : "GPL",
  },
  {
    "name" : "coverage",
    "fullname" : "coverage",
    "description" : "code coverage on Python",
    "homepage" : "http://nedbatchelder.com/code/coverage/",
    "contact" : "Ned Batchelder ned@nedbatchelder.com",
    "project" : "None",
    "category" : "Tool",
    "language" : "Python",
    "license" : "BSD",
  },
  {
    "name" : "astroid",
    "fullname" : "astroid",
    "description" : "common base representation of python source code",
    "homepage" : "https://www.astroid.org",
    "contact" : "Logilab http://www.logilab.fr/contact ",
    "project" : "None",
    "category" : "Tool",
    "language" : "Python",
    "license" : "LGPL",
  },
  {
    "name" : "m4",
    "fullname" : "m4",
    "description" : "implementation of the traditional Unix macro processor",
    "homepage" : "http://www.gnu.org/software/m4/m4.html",
    "contact" : "Gary V. Vaughan gary@gnu.org and Eric Blake ebb9@byu.net",
    "project" : "None",
    "category" : "Tool",
    "language" : "None",
    "license" : "GPLv3+",
  },
  {
    "name" : "autoconf",
    "fullname" : "autoconf",
    "description" : "extensible package of M4 macros that produce shell scripts",
    "homepage" : "http://www.gnu.org/software/autoconf/autoconf.html",
    "contact" : "Paul Eggert, Eric Blake <ebb9@byu.net>",
    "project" : "None",
    "category" : "Tool",
    "language" : "None",
    "license" : "GPLv3+",
  },
  {
    "name" : "backports.ssl_match_hostname",
    "fullname" : "backports.ssl_match_hostname",
    "description" : "The ssl.match_hostname() function from Python 3.4",
    "homepage" : "http://bitbucket.org/brandon/backports.ssl_match_hostname",
    "contact" : "Brandon Craig Rhodes brandon@rhodesmill.org",
    "project" : "None",
    "category" : "Tool",
    "language" : "Python",
    "license" : "UNKNOWN",
  },
  {
    "name" : "backports.shutil_get_terminal_size",
    "fullname" : "backports.shutil_get_terminal_size",
    "description" : "A backport of the `get_terminal_size`_ function from Python 3.3's shutil",
    "homepage" : "https://docs.python.org/3/library/shutil.html#shutil.get_terminal_size",
    "contact" : "Christopher Rosell",
    "project" : "None",
    "category" : "Tool",
    "language" : "Python",
    "license" : "MIT Licence",
  },
  {
    "name" : "xz",
    "fullname" : "xz",
    "description" : "general-purpose data compression software with a high compression ratio",
    "homepage" : "http://tukaani.org/xz",
    "contact" : "Lasse Collin lasse.collin@tukaani.org",
    "project" : "None",
    "category" : "Tool",
    "language" : "Python",
    "license" : "Public and partially GNU LGPLv2.1, GNU GPLv2, or GNU GPLv3",
  },
  {
    "name" : "backports.lzma",
    "fullname" : "backports.lzma",
    "description" : "Backport of Python 3.3's `lzma` module for XZ/LZMA compressed files",
    "homepage" : "https://github.com/peterjc/backports.lzma",
    "contact" : "Tomer Chachamu, Wynn Wilkes, Irving Reid, Ralph Bean, Deroko",
    "project" : "None",
    "category" : "Tool",
    "language" : "Python",
    "license" : "MIT Licence",
  },
  {
    "name" : "certifi",
    "fullname" : "certifi",
    "description" : "This installable Python package contains a CA Bundle that you can reference in your Python code",
    "homepage" : "http://python-requests.org",
    "contact" : "Kenneth Reitz me@kennethreitz.com",
    "project" : "None",
    "category" : "Tool",
    "language" : "Python",
    "license" : "MPL",
  },
  {
    "name" : "cmmnbuild",
    "fullname" : "cmmnbuild-dep-manager",
    "description" : "A module to manage Java dependencies across multiple Python package",
    "homepage" : "https://gitlab.cern.ch/rdemaria/cmmnbuild-dep-manager",
    "contact" : "Tom Levens tom.levens@cern.ch",
    "project" : "None",
    "category" : "Tool",
    "language" : "Java",
    "license" : "UNKNOWN",
  },
  {
    "name" : "configparser",
    "fullname" : "configparser",
    "description" : "This library brings the updated configparser from Python 3.5 to Python 2.6-3.5",
    "homepage" : "http://docs.python.org/3/library/configparser.html",
    "contact" : "Łukasz Langa lukasz@langa.pl",
    "project" : "None",
    "category" : "Tool",
    "language" : "Python",
    "license" : "MIT",
  },
  {
    "name" : "cycler",
    "fullname" : "cycler",
    "description" : "Composable style cycles",
    "homepage" : "http://github.com/matplotlib/cycler",
    "contact" : "Thomas A Caswell matplotlib-users@python.org",
    "project" : "None",
    "category" : "Tool",
    "language" : "Python",
    "license" : "BSD",
  },
  {
    "name" : "decorator",
    "fullname" : "decorator",
    "description" : "None",
    "homepage" : "https://github.com/micheles/decorator",
    "contact" : "Michele Simionato michele.simionato@gmail.com",
    "project" : "None",
    "category" : "Tool",
    "language" : "Python",
    "license" : "BSD",
  },
  {
    "name" : "distribute",
    "fullname" : "distribute",
    "description" : "Intended to replace Setuptools as the standard method for working with Python module distributions",
    "homepage" : "http://packages.python.org/distribute",
    "contact" : "distutils-sig@python.org",
    "project" : "None",
    "category" : "Tool",
    "language" : "Python",
    "license" : "PSF or ZPL",
  },
  {
    "name" : "jsonc",
    "fullname" : "json-c",
    "description" : "A JSON implementation in C",
    "homepage" : "https://github.com/json-c/json-c/wiki",
    "contact" : "json-c@googlegroups.com",
    "project" : "None",
    "category" : "Tool",
    "language" : "C",
    "license" : "MIT",
  },
  {
    "name" : "jsoncpp",
    "fullname" : "jsoncpp",
    "description" : "C++ library that allows manipulating JSON values",
    "homepage" : "http://json.org/",
    "contact" : "Baptiste Lepilleur blep@users.sourceforge.net",
    "project" : "None",
    "category" : "Tool",
    "language" : "Cpp",
    "license" : "MIT",
  },
  {
    "name" : "ccache",
    "fullname" : "ccache",
    "description" : "ccache is a compiler cache",
    "homepage" : "http://ccache.samba.org",
    "contact" : "Jean-loup Gailly jloup@gzip.org, Mark Adler madler@alumni.caltech.edu",
    "project" : "None",
    "category" : "Tool",
    "language" : "C",
    "license" : "GPL-3.0",
  },
  {
    "name" : "CouchDB",
    "fullname" : "CouchDB",
    "description" : "Python library for working with CouchDB",
    "homepage" : "https://github.com/djc/couchdb-python/",
    "contact" : "Dirkjan Ochtman  dirkjan@ochtman.nl",
    "project" : "None",
    "category" : "Tool",
    "language" : "Python",
    "license" : "BSD",
  },
  {
    "name" : "cmt",
    "fullname" : "CMT",
    "description" : "None",
    "homepage" : "None",
    "contact" : "rybkin@lal.in2p3.fr",
    "project" : "None",
    "category" : "Tool",
    "language" : "None",
    "license" : "UNKNOWN",
  },
  {
    "name" : "curl",
    "fullname" : "curl",
    "description" : "Curl is a command line tool for transferring data specified with URL syntax",
    "homepage" : "https://curl.haxx.se",
    "contact" : "https://curl.haxx.se/mail/",
    "project" : "None",
    "category" : "Tool",
    "language" : "None",
    "license" : "UNKNOWN",
  },
  {
    "name" : "Davix",
    "fullname" : "davix",
    "description" : "aims to make the task of managing files over HTTP-based protocols simple",
    "homepage" : "http://wlcg.web.cern.ch/",
    "contact" : "Georgios Bitzes georgios.bitzes@cern.ch",
    "project" : "None",
    "category" : "Tool",
    "language" : "None",
    "license" : "GPL",
  },
  {
    "name" : "eigen",
    "fullname" : "eigen",
    "description" : "C++ template library for linear algebra: matrices, vectors, numerical solvers, and related algorithms",
    "homepage" : "http://eigen.tuxfamily.org",
    "contact" : "https://forum.kde.org/viewforum.php?f=74",
    "project" : "None",
    "category" : "Tool",
    "language" : "Cpp",
    "license" : "MPL2, BSD, LGPL",
  },
  {
    "name" : "elasticsearch",
    "fullname" : "elasticsearch",
    "description" : "Python client for Elasticsearch",
    "homepage" : "https://github.com/elastic/elasticsearch-py",
    "contact" : "Honza Král honza.kral@gmail.com",
    "project" : "None",
    "category" : "Tool",
    "language" : "Python",
    "license" : "Apache Licence v2",
  },
  {
    "name" : "entrypoints",
    "fullname" : "entrypoints",
    "description" : "Entry points are a way for Python packages to advertise objects with some common interface",
    "homepage" : "https://github.com/takluyver/entrypoints",
    "contact" : "Thomas Kluyver",
    "project" : "None",
    "category" : "Tool",
    "language" : "Python",
    "license" : "MIT",
  },
  {
    "name" : "fjcontrib",
    "fullname" : "fjcontrib",
    "description" : "The fastjet-contrib space is intended to provide a common location for access to 3rd party extensions of FastJet",
    "homepage" : "http://fastjet.hepforge.org/contrib/",
    "contact" : "fastjet@projects.hepforge.org",
    "project" : "None",
    "category" : "Tool",
    "language" : "Cpp",
    "license" : "GPL v2",
  },
  {
    "name" : "freetype",
    "fullname" : "freetype",
    "description" : "FreeType is a freely available software library to render fonts",
    "homepage" : "http://www.freetype.org",
    "contact" : "freetype@nongnu.org",
    "project" : "None",
    "category" : "Tool",
    "language" : "C",
    "license" : "Freetype Project Licence",
  },
  {
    "name" : "gperftools",
    "fullname" : "gperftools",
    "description" : "gperftools is a collection of a high-performance multi-threaded malloc() implementation",
    "homepage" : "https://github.com/gperftools/gperftools/",
    "contact" : "google-perftools@googlegroups.com",
    "project" : "None",
    "category" : "Tool",
    "language" : "Python",
    "license" : "BSD",
  },
  {
    "name" : "gtest",
    "fullname" : "gtest",
    "description" : "Google's C++ test framework",
    "homepage" : "https://travis-ci.org/google/googletest",
    "contact" : "None",
    "project" : "None",
    "category" : "Tool",
    "language" : "Cpp",
    "license" : "UNKNOWN",
  },
  {
    "name" : "hepdata_converter",
    "fullname" : "hepdata-converter",
    "description" : "Conversion libraries",
    "homepage" : "https://github.com/HEPData/hepdata-converter/",
    "contact" : "Danilo Piparo danilo.piparo@cern.ch",
    "project" : "None",
    "category" : "Tool",
    "language" : "Python",
    "license" : "GPL v2",
  },
  {
    "name" : "hepdata_validator",
    "fullname" : "hepdata-validator",
    "description" : "Includes the JSON Schema for submission files and code to run validations",
    "homepage" : "https://github.com/HEPData/hepdata-validator/",
    "contact" : "Eamonn Maguire eamonn.maguire@cern.ch",
    "project" : "None",
    "category" : "Tool",
    "language" : "Python",
    "license" : "GPL v2",
  },
  {
    "name" : "ipython_genutils",
    "fullname" : "ipython_genutils",
    "description" : "Vestigial utilities from IPython",
    "homepage" : "http://ipython.org",
    "contact" : "ipython-dev@scipy.org",
    "project" : "None",
    "category" : "Tool",
    "language" : "Python",
    "license" : "BSD",
  },
  {
    "name" : "ipykernel",
    "fullname" : "ipykernel",
    "description" : "IPython Kernel for Jupyter",
    "homepage" : "http://ipython.org",
    "contact" : "ipython-dev@scipy.org",
    "project" : "None",
    "category" : "Tool",
    "language" : "Python",
    "license" : "BSD",
  },
  {
    "name" : "ipywidgets",
    "fullname" : "ipywidgets",
    "description" : "IPython HTML widgets for Jupyter",
    "homepage" : "http://ipython.org",
    "contact" : "ipython-dev@scipy.org",
    "project" : "None",
    "category" : "Tool",
    "language" : "Python",
    "license" : "BSD",
  },
  {
    "name" : "java",
    "fullname" : "jdk",
    "description" : "Programming language and computing platform first released by Sun Microsystems",
    "homepage" : "java.com",
    "contact" : "http://java.com/en/download/support.jsp",
    "project" : "None",
    "category" : "Tool",
    "language" : "Java",
    "license" : "Oracle Binary Code License",
  },
  {
    "name" : "jemalloc",
    "fullname" : "jemalloc",
    "description" : "jemalloc is a general purpose malloc(3) implementation that emphasizes fragmentation avoidance and scalable concurrency support",
    "homepage" : "http://www.canonware.com/jemalloc",
    "contact" : "Jason Evans jasone@canonware.com",
    "project" : "None",
    "category" : "Tool",
    "language" : "Java",
    "license" : "FreeBSD",
  },
  {
    "name" : "Jinja2",
    "fullname" : "Jinja2",
    "description" : "A small but fast and easy to use stand-alone template engine written in pure python.",
    "homepage" : "http://jinja.pocoo.org/",
    "contact" : "Armin Ronacher armin.ronacher@active-4.com",
    "project" : "None",
    "category" : "Tool",
    "language" : "Python",
    "license" : "BSD",
  },
  {
    "name" : "jpype",
    "fullname" : "jpype",
    "description" : "JPype is an effort to allow python programs full access to java class libraries",
    "homepage" : "https://github.com/originell/jpype",
    "contact" : "Luis Nell",
    "project" : "None",
    "category" : "Tool",
    "language" : "Python",
    "license" : "Apache Licence v2",
  },
  {
    "name" : "jsonschema",
    "fullname" : "jsonschema",
    "description" : "An implementation of JSON Schema validation for Python",
    "homepage" : "http://github.com/Julian/jsonschema",
    "contact" : "Julian Berman Julian@GrayVines.com",
    "project" : "None",
    "category" : "Tool",
    "language" : "Python",
    "license" : "MIT",
  },
  {
    "name" : "jupiter",
    "fullname" : "jupiter",
    "description" : "Jupyter metapackage. Install all the Jupyter components in one go",
    "homepage" : "http://jupyter.org",
    "contact" : "jupyter@googlegroups.org",
    "project" : "None",
    "category" : "Tool",
    "language" : "Python",
    "license" : "BSD",
  },
  {
    "name" : "jupiter_client",
    "fullname" : "jupiter_client",
    "description" : "Jupyter protocol implementation and client libraries",
    "homepage" : "http://jupyter.org",
    "contact" : "jupyter@googlegroups.com",
    "project" : "None",
    "category" : "Tool",
    "language" : "Python",
    "license" : "BSD",
  },
  {
    "name" : "jupiter_core",
    "fullname" : "jupiter_core",
    "description" : "Jupyter core package. A base package on which Jupyter projects rely",
    "homepage" : "http://jupyter.org",
    "contact" : "jupyter@googlegroups.com",
    "project" : "None",
    "category" : "Tool",
    "language" : "Python",
    "license" : "BSD",
  },
  {
    "name" : "jupiter_console",
    "fullname" : "jupiter_console",
    "description" : "Jupyter protocol implementation and client libraries",
    "homepage" : "http://jupyter.org",
    "contact" : "jupyter@googlegroups.com",
    "project" : "None",
    "category" : "Tool",
    "language" : "Python",
    "license" : "BSD",
  },
  {
    "name" : "future",
    "fullname" : "future",
    "description" : "missing compatibility layer between Python 2 and Python 3",
    "homepage" : "http://python-future.org/",
    "contact" : "Ed Schofield ed@pythoncharmers.com",
    "project" : "None",
    "category" : "Tool",
    "language" : "Python",
    "license" : "MIT Licence",
  },
  {
    "name" : "libaio",
    "fullname" : "libaio",
    "description" : "None",
    "homepage" : "https://git.fedorahosted.org/git/libaio.git",
    "contact" : "Jeff Moyer",
    "project" : "None",
    "category" : "Tool",
    "language" : "None",
    "license" : "GNU Library Public License, version 2",
  },
  {
    "name" : "libxml2",
    "fullname" : "libxml2",
    "description" : "XML toolkit from the GNOME project",
    "homepage" : "http://xmlsoft.org/",
    "contact" : "Daniel Veillard daniel@veillard.com",
    "project" : "None",
    "category" : "Tool",
    "language" : "C",
    "license" : "MIT",
  },
  {
    "name" : "libxslt",
    "fullname" : "libxslt",
    "description" : "XSLT support for libxml2 (XML toolkit from the GNOME project)",
    "homepage" : "http://xmlsoft.org/XSLT/",
    "contact" : "Daniel Veillard daniel@veillard.com",
    "project" : "None",
    "category" : "Tool",
    "language" : "C",
    "license" : "UNKNOWN",
  },
  {
    "name" : "logilabcommon",
    "fullname" : "logilab-common",
    "description" : "collection of low-level Python packages and modules used by Logilab projects",
    "homepage" : "http://www.logilab.org/project/logilab-common",
    "contact" : "contact@logilab.fr",
    "project" : "None",
    "category" : "Tool",
    "language" : "Python",
    "license" : "LGPL",
  },
  {
    "name" : "MarkupSafe",
    "fullname" : "MarkupSafe",
    "description" : "Implements a XML/HTML/XHTML Markup safe string for Python",
    "homepage" : "http://github.com/mitsuhiko/markupsafe",
    "contact" : "Armin Ronacher armin.ronacher@active-4.com",
    "project" : "None",
    "category" : "Tool",
    "language" : "Python",
    "license" : "BSD",
  },
  {
    "name" : "metakernel",
    "fullname" : "metakernel",
    "description" : "Metakernel for Jupyter",
    "homepage" : "https://github.com/Calysto/metakernel",
    "contact" : "Steven Silvester teven.silvester@ieee.org",
    "project" : "None",
    "category" : "Tool",
    "language" : "Python",
    "license" : "UNKNOWN",
  },
  {
    "name" : "messaging",
    "fullname" : "python-messaging-master",
    "description" : "set of Python modules useful to deal with messages, as used in messaging",
    "homepage" : "https://messaging.readthedocs.org/",
    "contact" : "Massimo Paladin massimo.paladin@gmail.com",
    "project" : "None",
    "category" : "Tool",
    "language" : "Python",
    "license" : "Apache License, Version 2.0",
  },
  {
    "name" : "mistune",
    "fullname" : "mistune",
    "description" : "The fastest markdown parser in pure Python",
    "homepage" : "https://github.com/lepture/mistune",
    "contact" : "Hsiaoming Yang me@lepture.com",
    "project" : "None",
    "category" : "Tool",
    "language" : "Python",
    "license" : "BSD",
  },
  {
    "name" : "mpich2",
    "fullname" : "mpich2",
    "description" : "High-performance and widely portable implementation of the MPI-2.2 standard from the Argonne National Laboratory",
    "homepage" : "https://www.mpich.org/",
    "contact" : "https://www.mpich.org/support/",
    "project" : "None",
    "category" : "Tool",
    "language" : "Cpp",
    "license" : "2002 University of Chicago",
  },
  {
    "name" : "nbconverter",
    "fullname" : "nbconverter",
    "description" : "Converting Jupyter Notebooks",
    "homepage" : "http://jupyter.org",
    "contact" : "jupyter@googlegroups.com",
    "project" : "None",
    "category" : "Tool",
    "language" : "Python",
    "license" : "BSD",
  },
  {
    "name" : "nbformat",
    "fullname" : "nbformat",
    "description" : "The Jupyter Notebook format",
    "homepage" : "http://jupyter.org",
    "contact" : "jupyter@googlegroups.com",
    "project" : "None",
    "category" : "Tool",
    "language" : "Python",
    "license" : "BSD",
  },
  {
    "name" : "networkx",
    "fullname" : "networkx",
    "description" : "Python package for the creation, manipulation, and study of the structure, dynamics, and functions of complex networks",
    "homepage" : "http://networkx.github.io/",
    "contact" : "networkx-discuss@googlegroups.com",
    "project" : "None",
    "category" : "Tool",
    "language" : "Python",
    "license" : "BSD",
  },
  {
    "name" : "ninja",
    "fullname" : "ninja",
    "description" : "build system with a focus on speed",
    "homepage" : "http://martine.github.com/ninja/",
    "contact" : "Andrea Valassi andrea.valassi@cern.ch",
    "project" : "None",
    "category" : "Tool",
    "language" : "Cpp",
    "license" : "Apache Licence v2",
  },
  {
    "name" : "notebook",
    "fullname" : "notebook",
    "description" : "web-based notebook environment for interactive computing",
    "homepage" : "http://jupyter.org",
    "contact" : "jupyter@googlegroups.com",
    "project" : "None",
    "category" : "Tool",
    "language" : "Python",
    "license" : "BSD",
  },
  {
    "name" : "openssl",
    "fullname" : "openssl",
    "description" : "Open Source toolkit implementing the Secure Sockets Layer (SSL v2/v3) and Transport Layer Security (TLS v1) protocols as well as a full-strength general purpose cryptography library",
    "homepage" : "www.openssl.org",
    "contact" : "openssl-bugs@openssl.org",
    "project" : "None",
    "category" : "Tool",
    "language" : "Cpp",
    "license" : "dual license: conditions of the OpenSSL License and the original SSLeay license",
  },
  {
    "name" : "numexpr",
    "fullname" : "numexpr",
    "description" : "Fast numerical expression evaluator for NumPy",
    "homepage" : "https://github.com/pydata/numexpr",
    "contact" : "david.m.cooke@gmail.com, faltet@gmail.com",
    "project" : "None",
    "category" : "Tool",
    "language" : "Python",
    "license" : "MIT",
  },
  {
    "name" : "pandas",
    "fullname" : "pandas",
    "description" : "Powerful data structures for data analysis, time series,and statistics",
    "homepage" : "http://pandas.pydata.org",
    "contact" : "pydata@googlegroups.com",
    "project" : "None",
    "category" : "Tool",
    "language" : "Python",
    "license" : "BSD",
  },
  {
    "name" : "pathlib2",
    "fullname" : "pathlib2",
    "description" : "Object-oriented filesystem paths",
    "homepage" : "https://pypi.python.org/pypi/pathlib2/",
    "contact" : "matthias.troffaes@gmail.com",
    "project" : "None",
    "category" : "Tool",
    "language" : "Python",
    "license" : "MIT",
  },
  {
    "name" : "pathos",
    "fullname" : "pathos",
    "description" : "a framework for heterogeneous computing",
    "homepage" : "UNKNOWN",
    "contact" : "mmckerns@caltech.edu",
    "project" : "None",
    "category" : "Tool",
    "language" : "Python",
    "license" : "BSD",
  },
  {
    "name" : "pcre",
    "fullname" : "pcre",
    "description" : "library of functions to support regular expressions whose syntax and semantics are as close as possible to those of the Perl 5 language",
    "homepage" : "http://www.pcre.org/",
    "contact" : "Philip Hazel",
    "project" : "None",
    "category" : "Tool",
    "language" : "C and Cpp",
    "license" : "BSD",
  },
  {
    "name" : "pexpect",
    "fullname" : "pexpect",
    "description" : "Pexpect allows easy control of interactive console applications",
    "homepage" : "https://pexpect.readthedocs.io/",
    "contact" : " Noah Spurrier; Thomas Kluyver; Jeff Quast noah@noah.org; thomas@kluyver.me.uk; contact@jeffquast.com",
    "project" : "None",
    "category" : "Tool",
    "language" : "Python",
    "license" : "ISC license",
  },
  {
    "name" : "pickleshare",
    "fullname" : "pickleshare",
    "description" : "a small shelve like datastore with concurrency support",
    "homepage" : "https://github.com/pickleshare/pickleshare",
    "contact" : "Ville Vainio vivainio@gmail.com",
    "project" : "None",
    "category" : "Tool",
    "language" : "Python",
    "license" : "MIT",
  },
  {
    "name" : "pip",
    "fullname" : "pip",
    "description" : "The PyPA recommended tool for installing Python packages",
    "homepage" : "https://pip.pypa.io/",
    "contact" : "python-virtualenv@groups.google.com",
    "project" : "None",
    "category" : "Tool",
    "language" : "Python",
    "license" : "MIT",
  },
  {
    "name" : "pkg_config",
    "fullname" : "pkg-config",
    "description" : "a script to make putting together all the build flags when compiling/linking a lot easier",
    "homepage" : "https://www.freedesktop.org/wiki/Software/pkg-config/",
    "contact" : "pkg-config@lists.freedesktop.org",
    "project" : "None",
    "category" : "Tool",
    "language" : "C",
    "license" : "GPL",
  },
  {
    "name" : "prettytable",
    "fullname" : "prettytable",
    "description" : "A simple Python library for easily displaying tabular data in a visually appealing ASCII table format",
    "homepage" : "http://code.google.com/p/prettytable",
    "contact" : "Luke Maurits luke@maurits.id.au",
    "project" : "None",
    "category" : "Tool",
    "language" : "Python",
    "license" : "UNKNOWN",
  },
  {
    "name" : "prompt_toolkit",
    "fullname" : "prompt_toolkit",
    "description" : "Library for building powerful interactive command lines in Python",
    "homepage" : "https://github.com/jonathanslenders/python-prompt-toolkit",
    "contact" : "Jonathan Slenders",
    "project" : "None",
    "category" : "Tool",
    "language" : "Python",
    "license" : "UNKNOWN",
  },
  {
    "name" : "ptyprocess",
    "fullname" : "ptyprocess",
    "description" : "Run a subprocess in a pseudo terminal",
    "homepage" : "https://github.com/pexpect/ptyprocess",
    "contact" : "Thomas Kluyver thomas@kluyver.me.uk",
    "project" : "None",
    "category" : "Tool",
    "language" : "Python",
    "license" : "UNKNOWN",
  },
  {
    "name" : "pyapigitlab",
    "fullname" : "pyapi-gitlab",
    "description" : "Gitlab API wrapper for Gitlab 7.X",
    "homepage" : "http://github.com/itxaka/pyapi-gitlab",
    "contact" : "Itxaka Serrano Garcia itxakaserrano@gmail.com",
    "project" : "None",
    "category" : "Tool",
    "language" : "Python",
    "license" : "UNKNOWN",
  },
  {
    "name" : "py4j",
    "fullname" : "py4j",
    "description" : "Enables Python programs to dynamically access arbitrary Java objects",
    "homepage" : "https://www.py4j.org/",
    "contact" : "Barthelemy Dagenais barthelemy@infobart.com",
    "project" : "None",
    "category" : "Tool",
    "language" : "Python/Java",
    "license" : "BSD",
  },
  {
    "name" : "pygments",
    "fullname" : "Pygments",
    "description" : "Pygments is a syntax highlighting package written in Python",
    "homepage" : "http://pygments.org/",
    "contact" : "Georg Brandl georg@python.org",
    "project" : "None",
    "category" : "Tool",
    "language" : "Python",
    "license" : "BSD",
  },
  {
    "name" : "pyqt5",
    "fullname" : "PyQt-gpl",
    "description" : "Python bindings for Qt v5",
    "homepage" : "http://www.riverbankcomputing.com/software/pyqt",
    "contact" : "https://www.riverbankcomputing.com/support/lists",
    "project" : "None",
    "category" : "Tool",
    "language" : "Python/C/Cpp",
    "license" : "GPL",
  },
  {
    "name" : "pytimber",
    "fullname" : "pytimber",
    "description" : "Python wrapping of the [CERN Accelerator Logging Service][cals] (CALS) API",
    "homepage" : "https://github.com/rdemaria/pytimber",
    "contact" : "Riccardo De Maria Riccardo.De.Maria@cern.ch",
    "project" : "None",
    "category" : "Tool",
    "language" : "Python",
    "license" : "UNKNOWN",
  },
  {
    "name" : "pytz",
    "fullname" : "pytz",
    "description" : "World timezone definitions, modern and historical",
    "homepage" : "http://pythonhosted.org/pytz",
    "contact" : "Stuart Bishop stuart@stuartbishop.net",
    "project" : "None",
    "category" : "Tool",
    "language" : "Python",
    "license" : "MIT",
  },
  {
    "name" : "python_dateutil",
    "fullname" : "python-dateutil",
    "description" : "Extensions to the standard Python datetime module",
    "homepage" : "https://dateutil.readthedocs.org",
    "contact" : "Yaron de Leeuw me@jarondl.net",
    "project" : "None",
    "category" : "Tool",
    "language" : "Python",
    "license" : "Simplified BSD",
  },
  {
    "name" : "PyYAML",
    "fullname" : "PyYAML",
    "description" : "YAML parser and emitter for Python",
    "homepage" : "http://pyyaml.org/wiki/PyYAML",
    "contact" : "Kirill Simonov xi@resolvent.net",
    "project" : "None",
    "category" : "Tool",
    "language" : "Python",
    "license" : "MIT",
  },
  {
    "name" : "rangev3",
    "fullname" : "range-v3",
    "description" : "Range library for C++11/14/17",
    "homepage" : "https://github.com/ericniebler/range-v3",
    "contact" : "Eric Niebler eniebler@boost.org",
    "project" : "None",
    "category" : "Tool",
    "language" : "C++",
    "license" : "Boost Software License",
  },
   {
    "name" : "cppgsl",
    "fullname" : "CPPGSL",
    "description" : "Functions and types that are suggested for use by the C++ Core Guidelines maintained by the Standard C++ Foundation",
    "homepage" : "https://github.com/Microsoft/GSL",
    "contact" : " ",
    "project" : "None",
    "category" : "Tool",
    "language" : "C++",
    "license" : "MIT Licence",
  },
  {
    "name" : "pyzmq",
    "fullname" : "pyzmq",
    "description" : "Python bindings for 0MQ",
    "homepage" : "http://github.com/zeromq/pyzmq",
    "contact" : "Brian E. Granger, Min Ragan-Kelley zeromq-dev@lists.zeromq.org",
    "project" : "None",
    "category" : "Tool",
    "language" : "Python",
    "license" : "LGPL+BSD",
  },
  {
    "name" : "qtconsole",
    "fullname" : "qtconsole",
    "description" : "Jupyter Qt console",
    "homepage" : "http://jupyter.org",
    "contact" : "jupyter@googlegroups.com",
    "project" : "None",
    "category" : "Tool",
    "language" : "Python",
    "license" : "BSD",
  },
  {
    "name" : "R",
    "fullname" : "R",
    "description" : "system for statistical computation and graphics. It consists of a language plus a run-time environment with graphics, a debugger, access to certain system functions, and the ability to run programs stored in script files.",
    "homepage" : "https://www.r-project.org/",
    "contact" : "https://www.r-project.org/mail.html",
    "project" : "None",
    "category" : "Tool",
    "language" : "R",
    "license" : "GPL",
  },
  {
    "name" : "requests",
    "fullname" : "requests",
    "description" : "Python HTTP for Human",
    "homepage" : "http://python-requests.org",
    "contact" : "Kenneth Reitz me@kennethreitz.com",
    "project" : "None",
    "category" : "Tool",
    "language" : "Python",
    "license" : "Apache 2.0",
  },
  {
    "name" : "rootpy",
    "fullname" : "rootpy",
    "description" : "A pythonic layer on top of the ROOT framework's PyROOT bindings",
    "homepage" : "http://rootpy.github.com/rootpy",
    "contact" : "Noel Dawe noel@dawe.me",
    "project" : "None",
    "category" : "Tool",
    "language" : "Python",
    "license" : "GPLv3",
  },
  {
    "name" : "root_numpy",
    "fullname" : "root_numpy",
    "description" : "An interface between ROOT and NumPy",
    "homepage" : "http://rootpy.github.io/root_numpy",
    "contact" : "rootpy-dev@googlegroups.com",
    "project" : "None",
    "category" : "Tool",
    "language" : "Python",
    "license" : "MIT",
  },
  {
    "name" : "rpy2",
    "fullname" : "rpy2",
    "description" : "Python interface to the R language (embedded R)",
    "homepage" : "http://rpy.sourceforge.net",
    "contact" : "Laurent Gautier lgautier@gmail.com",
    "project" : "None",
    "category" : "Tool",
    "language" : "Python",
    "license" : "GPLv2+",
  },
  {
    "name" : "singledispatch",
    "fullname" : "singledispatch",
    "description" : "This library brings functools.singledispatch from Python 3.4 to Python 2.6-3.3",
    "homepage" : "http://docs.python.org/3/library/functools.html#functools.singledispatch",
    "contact" : "Łukasz Langa lukasz@langa.pl",
    "project" : "None",
    "category" : "Tool",
    "language" : "Python",
    "license" : "MIT",
  },
  {
    "name" : "scikitlearn",
    "fullname" : "scikit-learn",
    "description" : "A set of python modules for machine learning and data mining",
    "homepage" : "http://scikit-learn.org",
    "contact" : "Andreas Mueller amueller@ais.uni-bonn.de",
    "project" : "None",
    "category" : "Tool",
    "language" : "Python",
    "license" : "new BSD",
  },
  {
    "name" : "simplegeneric",
    "fullname" : "simplegeneric",
    "description" : "Simple generic functions (similar to Python's own len(), pickle.dump(), etc.)",
    "homepage" : "http://cheeseshop.python.org/pypi/simplegeneric",
    "contact" : "Phillip J. Eby peak@eby-sarna.com",
    "project" : "None",
    "category" : "Tool",
    "language" : "Python",
    "license" : "ZPL 2.1",
  },
  {
    "name" : "six",
    "fullname" : "six",
    "description" : "Python 2 and 3 compatibility utilities",
    "homepage" : "http://pypi.python.org/pypi/six/",
    "contact" : "Benjamin Peterson benjamin@python.org",
    "project" : "None",
    "category" : "Tool",
    "language" : "Python",
    "license" : "MIT",
  },
  {
    "name" : "spark",
    "fullname" : "spark",
    "description" : "fast and general cluster computing system for Big Data",
    "homepage" : "http://spark.apache.org/",
    "contact" : "http://spark.apache.org/community.html#mailing-lists",
    "project" : "None",
    "category" : "Tool",
    "language" : "Python/Java/R",
    "license" : "Apache v2",
  },
  {
    "name" : "subprocess32",
    "fullname" : "subprocess32",
    "description" : "Backport of the subprocess module from Python 3.2/3.3 for use on 2.x",
    "homepage" : "http://code.google.com/p/python-subprocess32",
    "contact" : "Gregory P. Smith greg@krypto.org",
    "project" : "None",
    "category" : "Tool",
    "language" : "Python",
    "license" : "PSF license",
  },
  {
    "name" : "terminado",
    "fullname" : "terminado",
    "description" : "Terminals served to term.js using Tornado websockets",
    "homepage" : "https://github.com/takluyver/terminado",
    "contact" : "Thomas Kluyver thomas@kluyver.me.uk",
    "project" : "None",
    "category" : "Tool",
    "language" : "Python",
    "license" : "UNKNOWN",
  },
  {
    "name" : "tornado",
    "fullname" : "tornado",
    "description" : "Tornado is a Python web framework and asynchronous networking library, originally developed at FriendFeed",
    "homepage" : "http://www.tornadoweb.org/",
    "contact" : "python-tornado@googlegroups.com",
    "project" : "None",
    "category" : "Tool",
    "language" : "Python",
    "license" : "Apache v2",
  },
  {
    "name" : "traitlets",
    "fullname" : "traitlets",
    "description" : "Traitlets Python config system",
    "homepage" : "http://ipython.org",
    "contact" : "ipython-dev@scipy.org",
    "project" : "None",
    "category" : "Tool",
    "language" : "Python",
    "license" : "BSD",
  },
  {
    "name" : "urllib3",
    "fullname" : "urllib3",
    "description" : "HTTP library with thread-safe connection pooling, file post, and more",
    "homepage" : "http://urllib3.readthedocs.org",
    "contact" : "Andrey Petrov andrey.petrov@shazow.net",
    "project" : "None",
    "category" : "Tool",
    "language" : "Python",
    "license" : "MIT",
  },
  {
    "name" : "vectorclass",
    "fullname" : "vectorclass",
    "description" : "None",
    "homepage" : "None",
    "contact" : "None",
    "project" : "None",
    "category" : "Tool",
    "language" : "Cpp",
    "license" : "UNKNOWN",
  },
  {
    "name" : "wcwidth",
    "fullname" : "wcwidth",
    "description" : "Measures number of Terminal column cells of wide-character codes",
    "homepage" : "https://github.com/jquast/wcwidth",
    "contact" : "Jeff Quast contact@jeffquast.com",
    "project" : "None",
    "category" : "Tool",
    "language" : "Python",
    "license" : "MIT",
  },
  {
    "name" : "wheel",
    "fullname" :"wheel",
    "description" : "A built-package format for Python",
    "homepage" : "https://bitbucket.org/pypa/wheel/",
    "contact" : "Daniel Holt dholth@fastmail.fm",
    "project" : "None",
    "category" : "Tool",
    "language" : "Python",
    "license" : "MIT",
  },
  {
    "name" : "widgetsnbextension",
    "fullname" : "widgetsnbextension",
    "description" : "IPython HTML widgets for Jupyter",
    "homepage" : "http://ipython.org",
    "contact" : "ipython-dev@scipy.org",
    "project" : "None",
    "category" : "Tool",
    "language" : "Python",
    "license" : "BSD",
  },
  {
    "name" : "xapian",
    "fullname" : "xapian-core",
    "description" : "highly adaptable toolkit which allows developers to easily add advanced indexing and search facilities to their own applications",
    "homepage" : "http://xapian.org/",
    "contact" : "http://xapian.org/lists",
    "project" : "None",
    "category" : "Tool",
    "language" : "Cpp",
    "license" : "GPL v2",
  },
  {
    "name" : "xrootd_python",
    "fullname" : "xrootd-python",
    "description" : "Python bindings for XRootD",
    "homepage" : "git://github.com/xrootd/xrootd-python.git",
    "contact" : "None",
    "project" : "None",
    "category" : "Tool",
    "language" : "Python",
    "license" : "UNKNOWN",
  },
  {
    "name" : "zeromq",
    "fullname" : "zeromq",
    "description" : "It acts like a concurrency framework giving sockets that carry atomic messages across various transports like in-process, inter-process, TCP, and multicast",
    "homepage" : "http://zeromq.org/",
    "contact" : "http://zeromq.org/intro:ask-for-help",
    "project" : "None",
    "category" : "Tool",
    "language" : "C",
    "license" : "LGPLv3",
  },
  {
    "name" : "zlib",
    "fullname" : "zlib",
    "description" : "general purpose data compression library",
    "homepage" : "http://zlib.net/",
    "contact" : "http://zlib.net/mailman/listinfo/zlib-devel_madler.net",
    "project" : "None",
    "category" : "Tool",
    "language" : "C",
    "license" : "http://zlib.net/zlib_license.html",
  },
  {
    "name" : "automake",
    "fullname" : "automake",
    "description" : "Automake is a tool for automatically generating Makefile.in files compliant with the GNU Coding Standards",
    "homepage" : "http://www.gnu.org/software/automake/",
    "contact" : " automake@gnu.org",
    "project" : "None",
    "category" : "Tool",
    "language" : "None",
    "license" : "GPLv3+",
  },
  {
    "name" : "cx_oracle",
    "fullname" : "cx_oracle",
    "description" : "a Python extension module that allows access to Oracle databases",
    "homepage" : "http://www.python.net/crew/atuining/cx_Oracle/",
    "contact" : "Andrea Valassi andrea.valassi@cern.ch",
    "project" : "false",
    "category" : "Database",
    "language" : "Python",
    "license" : "CXORACLE",
  },
  {
    "name" : "doxygen",
    "fullname" : "doxygen",
    "description" : "a documentation system for C++, C, Java, Objective-C, Python, IDL and to some extent PHP, C#, and D",
    "homepage" : "http://www.doxygen.org",
    "contact" : "Nir Amram Nir.Amran@cern.ch",
    "project" : "None",
    "category" : "Tool",
    "language" : "Cpp",
    "license" : "GPL",
  },
  {
    "name" : "dpm",
    "fullname" : "dpm",
    "description" : "a disk pool manager library",
    "homepage" : "http://glite.web.cern.ch/glite/",
    "contact" : "Oliver Keeble oliver.keeble@cern.ch",
    "project" : "false",
    "category" : "Grid",
    "language" : "Cpp",
    "license" : "UNKNOWN",
  },
  {
    "name" : "evtgen",
    "fullname" : "EvtGen",
    "description" : "Monte Carlo event generator",
    "homepage" : "http://evtgen.warwick.ac.uk/",
    "contact" : "dev@evtgen.warwick.ac.uk",
    "project" : "None",
    "category" : "Generator",
    "language" : "Cpp",
    "license" : "UKNOWN",
  },
  {
    "name" : "expat",
    "fullname" : "expat",
    "description" : "a stream oriented XML parser",
    "homepage" : "http://www.libexpat.org/",
    "contact" : "Dirk Duellmann dirk.duellmann@cern.ch",
    "project" : "None",
    "category" : "XML",
    "language" : "C",
    "license" : "MIT",
  },
  {
    "name" : "fastjet",
    "fullname" : "Fastjet",
    "description" : "a implementation of the longitudinally invariant jet finders",
    "homepage" : "http://www.lpthe.jussieu.fr/~salam/fastjet/",
    "contact" : "Ivan Belyaev Ivan.Belyaev@cern.ch",
    "project" : "false",
    "category" : "Math",
    "language" : "Cpp",
    "license" : "UNKNOWN",
  },
  {
    "name" : "fftw",
    "fullname" : "fftw",
    "description" : "a library for computing the discrete Fourier transform",
    "homepage" : "http://www.fftw.org",
    "contact" : "Lorenzo Moneta lorenzo.moneta@cern.ch",
    "project" : "None",
    "category" : "Math",
    "language" : "C",
    "license" : "GPL",
  },
  {
    "name" : "Frontier_Client",
    "fullname" : "Frontier_Client",
    "description" : "a database access toolkit comprising web technologies",
    "homepage" : "http://frontier.cern.ch",
    "contact" : "Andreas Pfeiffer andreas.pfeiffer@cern.ch",
    "project" : "None",
    "category" : "IO",
    "language" : "Other",
    "license" : "UNKNOWN",
  },
  {
    "name" : "Geant4",
    "fullname" : "Geant4",
    "description" : "a generic simulation toolkit",
    "homepage" : "http://geant4.cern.ch/",
    "contact" : "Gabriele Cosmo gabriele.cosmo@cern.ch",
    "project" : "true",
    "category" : "Simulation",
    "language" : "Cpp",
    "license" : "Geant4 Software License",
  },
  {
    "name" : "genshi",
    "fullname" : "genshi",
    "description" : "Python toolkit for generation of output for the web",
    "homepage" : "http://genshi.edgewall.org/",
    "contact" : "Peter Waller peter.waller@gmail.com",
    "project" : "None",
    "category" : "Database",
    "language" : "Python",
    "license" : "custom",
  },
  {
    "name" : "gfal",
    "fullname" : "gfal",
    "description" : "a grid file access library",
    "homepage" : "http://grid-deployment.web.cern.ch/grid-deployment/gis/GFAL/gfal.3.html",
    "contact" : "Oliver Keeble oliver.keeble@cern.ch",
    "project" : "false",
    "category" : "Grid",
    "language" : "Cpp",
    "license" : "UNKNOWN",
  },
  {
    "name" : "graphviz",
    "fullname" : "graphviz",
    "description" : "a package for graph visualization",
    "homepage" : "http://www.graphviz.org",
    "contact" : "Patricia Mendez patricia.mendez@cern.ch",
    "project" : "None",
    "category" : "Graphics",
    "language" : "C",
    "license" : "GPL",
  },
  {
    "name" : "GSL",
    "fullname" : "gsl",
    "description" : "A numerical library for C and C++",
    "homepage" : "http://www.gnu.org/software/gsl/",
    "contact" : "Lorenzo Moneta lorenzo.moneta@cern.ch",
    "project" : "None",
    "category" : "Math",
    "language" : "C",
    "license" : "GPL",
  },
  {
    "name" : "hadoop",
    "fullname" : "hadoop",
    "description" : "Apache Hadoop, distributed processing of large data sets across clusters",
    "homepage" : "http://hadoop.apache.org",
    "contact" : "Enric Tejedor enric.tejedor@cern.ch",
    "project" : "None",
    "category" : "Tool",
    "language" : "Java",
    "license" : "Apache",
  },
  {
    "name" : "HepMC",
    "fullname" : "HepMC",
    "description" : "An object oriented event record written in C++ for High Energy Physics Monte Carlo Generators",
    "homepage" : "http://lcgapp.cern.ch/project/simu/HepMC/",
    "contact" : "Stefan Roiser stefan.roiser@cern.ch",
    "project" : "None",
    "category" : "Simulation",
    "language" : "Cpp",
    "license" : "UNKNOWN",
  },
  {
    "name" : "HepPDT",
    "fullname" : "HepPDT",
    "description" : "Contains the fixed data about each particle type",
    "homepage" : "http://cepa.fnal.gov/psm/heppdt/",
    "contact" : "Stefan Roiser stefan.roiser@cern.ch",
    "project" : "None",
    "category" : "Simulation",
    "language" : "Cpp",
    "license" : "UNKNOWN",
  },
  {
    "name" : "herwig",
    "fullname" : "Herwig",
    "description" : "Monte Carlo event generator",
    "homepage" : "http://www.hep.phy.cam.ac.uk/theory/webber/Herwig/",
    "contact" : "webber@hep.phy.cam.ac.uk",
    "project" : "None",
    "category" : "Generator",
    "language" : "Fortran",
    "license" : "UKNOWN",
  },
  {
    "name" : "herwig++",
    "fullname" : "Herwig++",
    "description" : "Monte Carlo event generator",
    "homepage" : "http://herwig.hepforge.org/",
    "contact" : "herwig@projects.hepforge.org",
    "project" : "None",
    "category" : "Generator",
    "language" : "Cpp",
    "license" : "UKNOWN",
  },
  {
    "name" : "hive",
    "fullname" : "apache-hive",
    "description" : "Data warehouse software facilitates reading, writing, and managing large datasets",
    "homepage" : "https://hive.apache.org",
    "contact" : "Enric Tejedor enric.tejedor@cern.ch",
    "project" : "None",
    "category" : "Tool",
    "language" : "Java",
    "license" : "Apache",
  },
  {
    "name" : "igprof",
    "fullname" : "igprof",
    "description" : "Profiler",
    "homepage" : "http://igprof.sourceforge.net/",
    "contact" : "Lassi Tuura Lassi.Tuura@cern.ch",
    "project" : "false",
    "category" : "Tool",
    "language" : "C++",
    "license" : "GPL",
  },
  {
    "name" : "ipython",
    "fullname" : "ipython",
    "description" : "an enhanced shell for python",
    "homepage" : "http://ipython.scipy.org",
    "contact" : "Vincenzo Innocente Vincenzo.Innocente@cern.ch",
    "project" : "None",
    "category" : "Tool",
    "language" : "Python",
    "license" : "BSD",
  },
  {
    "name" : "jhu",
    "fullname" : "Jhu",
    "description" : "For simulation of a single-produced resonance at hadron colliders",
    "homepage" : "http://www.pha.jhu.edu/spin/",
    "contact" : "Nhan Tran ntran@fnal.gov",
    "project" : "None",
    "category" : "Generator",
    "language" : "Fortran",
    "license" : "",
  },
  {
    "name" : "json",
    "fullname" : "json",
    "description" : "Extensible JSON encoder/decoder for Python",
    "homepage" : "http://pypi.python.org/pypi/simplejson/",
    "contact" : "Juan Palacios juan.palacios@cern.ch",
    "project" : "None",
    "category" : "Tool",
    "language" : "Python",
    "license" : "MIT",
  },
  {
    "name" : "lapack",
    "fullname" : "lapack",
    "description" : "a library to perform basic linear algebra operations",
    "homepage" : "http://www.netlib.org/lapack/",
    "contact" : "Sebastien Binet binet@cern.ch",
    "project" : "None",
    "category" : "Math",
    "language" : "Fortran",
    "license" : "LAPACK",
  },
  {
    "name" : "lcgdmcommon",
    "fullname" : "lcgdmcommon",
    "description" : "common interfaces Cthread, serrno, Castor_limits",
    "homepage" : "http://glite.web.cern.ch/glite/",
    "contact" : "Oliver Keeble oliver.keeble@cern.ch",
    "project" : "false",
    "category" : "Grid",
    "language" : "Cpp",
    "license" : "UNKNOWN",
  },
  {
    "name" : "lcginfosites",
    "fullname" : "lcginfosites",
    "description" : "a tool to retrieve info on Grid resources",
    "homepage" : "http://glite.web.cern.ch/glite/",
    "contact" : "Oliver Keeble oliver.keeble@cern.ch",
    "project" : "false",
    "category" : "Grid",
    "language" : "Cpp",
    "license" : "UNKNOWN",
  },
  {
    "name" : "lcgutils",
    "fullname" : "lcgutils",
    "description" : "a set of tools interfacing Storage Elements and RLS or LFC",
    "homepage" : "http://glite.web.cern.ch/glite/",
    "contact" : "Oliver Keeble oliver.keeble@cern.ch",
    "project" : "false",
    "category" : "Grid",
    "language" : "Cpp",
    "license" : "UNKNOWN",
  },
  {
    "name" : "lcov",
    "fullname" : "lcov",
    "description" : "a graphical frontend for gcc's gcov coverage testing",
    "homepage" : "http://ltp.sourceforge.net/coverage/lcov.php",
    "contact" : "Patricia Mendez patricia.mendez@cern.ch",
    "project" : "None",
    "category" : "Tool",
    "language" : "Perl",
    "license" : "GPL",
  },
  {
    "name" : "lfc",
    "fullname" : "lfc",
    "description" : "a grid catalog implementation .",
    "homepage" : "http://glite.web.cern.ch/glite/",
    "contact" : "Oliver Keeble oliver.keeble@cern.ch",
    "project" : "false",
    "category" : "Other",
    "language" : "Other",
    "license" : "UNKNOWN",
  },
  {
    "name" : "lhapdf",
    "fullname" : "LHAPDF",
    "description" : "Les Houches Accord PDF Interface",
    "homepage" : "https://lhapdf.hepforge.org/",
    "contact" : "lhapdf@projects.hepforge.org",
    "project" : "None",
    "category" : "Generator",
    "language" : "Fortran",
    "license" : "UNKNOWN",
  },
  {
    "name" : "maven",
    "fullname" : "maven",
    "description" : "Software project management and comprehension tool",
    "homepage" : "https://hive.apache.org",
    "contact" : "Enric Tejedor enric.tejedor@cern.ch",
    "project" : "None",
    "category" : "Tool",
    "language" : "Java",
    "license" : "Apache",
  },
  {
    "name" : "mcutils",
    "fullname" : "mcutils",
    "description" : "collection of navigation and manipulation routines for operating on particle physics HepMC event records",
    "homepage" : "https://bitbucket.org/andybuckley/mcutils",
    "contact" : "Andy Buckley andy.buckley@cern.ch",
    "project" : "None",
    "category" : "Generator",
    "language" : "Cpp",
    "license" : "UNKNOWN",
  },
  {
    "name" : "heputils",
    "fullname" : "HEPUtils",
    "description" : " set of minimal classes for use in HEP analysis, simulation, whatever",
    "homepage" : "https://bitbucket.org/andybuckley/mcutils",
    "contact" : "Andy Buckley andy.buckley@cern.ch",
    "project" : "None",
    "category" : "Generator",
    "language" : "Cpp",
    "license" : "UNKNOWN",
  },
  {
    "name" : "syscalc",
    "fullname" : "sysCalc",
    "description" : "package that calculates event weights due to systematical uncertainties",
    "homepage" : "None",
    "contact" : "Johan Alwall, Alexis Kalogeropoulos, Olivier Mattelaer",
    "project" : "None",
    "category" : "Generator",
    "language" : "None",
    "license" : "UNKNOWN",
  },
  {
    "name" : "powheg-box-v2",
    "fullname" : "powhegbox",
    "description" : "general computer framework for implementing NLO calculations in shower Monte Carlo programs according to the POWHEG method",
    "homepage" : "http://powhegbox.mib.infn.it/",
    "contact" : "genser-dev@cern.ch",
    "project" : "None",
    "category" : "Generator",
    "language" : "Fortran/Cpp",
    "license" : "UNKNOWN",
  },
  {
    "name" : "feynhiggs",
    "fullname" : "Feynhiggs",
    "description" : "Fortran code for the (diagrammatic) calculation of the masses, mixings and much more of the Higgs bosons in the MSSM with real/complex parameters at the highest level of accuracy",
    "homepage" : "http://wwwth.mpp.mpg.de/members/heinemey/feynhiggs/cFeynHiggs.html",
    "contact" : "genser-dev@cern.ch",
    "project" : "None",
    "category" : "Generator",
    "language" : "Fortran",
    "license" : "GPLv3",
  },
  {
    "name" : "chaplin",
    "fullname" : "chaplin",
    "description" : "None",
    "homepage" : "None",
    "contact" : "genser-dev@cern.ch",
    "project" : "None",
    "category" : "Generator",
    "language" : "None",
    "license" : "UNKNOWN",
  },
  {
    "name" : "sacrifice",
    "fullname" : "Sacrifice",
    "description" : "Main program for Pythia 8",
    "homepage" : "None",
    "contact" : "genser-dev@cern.ch",
    "project" : "None",
    "category" : "Generator",
    "language" : "Cpp",
    "license" : "GPLv2",
  },
  {
    "name" : "looptools",
    "fullname" : "Looptools",
    "description" : "package for evaluation of scalar and tensor one-loop integrals based on the FF package",
    "homepage" : "http://www.feynarts.de/looptools/",
    "contact" : "genser-dev@cern.ch",
    "project" : "None",
    "category" : "Generator",
    "language" : "Fortran/Cpp",
    "license" : "GPLv3",
  },
  {
    "name" : "vbfnlo",
    "fullname" : "VBFNLO",
    "description" : "parton level Monte Carlo for processes with electroweak bosons",
    "homepage" : "https://www.itp.kit.edu/vbfnlo/wiki/doku.php",
    "contact" : "vbfnlo@itp.kit.edu",
    "project" : "None",
    "category" : "Generator",
    "language" : "Fortran",
    "license" : "GPLv2",
  },
  {
    "name" : "FORM",
    "fullname" : "form",
    "description" : "Symbolic Manipulation System. It reads symbolic expressions from files and executes symbolic/algebraic transformations upon them",
    "homepage" : "http://www.nikhef.nl/~form/",
    "contact" : "Hans Staudenmaier and Hans Kuehn",
    "project" : "None",
    "category" : "Generator",
    "language" : "C",
    "license" : "GPLv3",
  },
  {
    "name" : "openloops",
    "fullname" : "Openloops",
    "description" : "Fortran 90 package for the calculation of tree and one-loop matrix elements for Standard Model processes based on",
    "homepage" : "http://openloops.hepforge.org/",
    "contact" : "openloops@projects.hepforge.org",
    "project" : "None",
    "category" : "Generator",
    "language" : "Fortran",
    "license" : "GPLv3",
  },
  {
    "name" : "njet",
    "fullname" : "njet",
    "description" : "C++ library for multi-parton one-loop matrix elements",
    "homepage" : "https://bitbucket.org/njet/njet",
    "contact" : "simon.badger@cern.ch",
    "project" : "None",
    "category" : "Generator",
    "language" : "Cpp",
    "license" : "GPLv3",
  },
  {
    "name" : "qgraf",
    "fullname" : "qgraf",
    "description" : "computer program that can generate Feynman diagrams and represent them by symbolic expressions (no graphical output is generated, though).",
    "homepage" : "http://cfif.ist.utl.pt/~paulo/qgraf.html",
    "contact" : "http://cfif.ist.utl.pt/~paulo/index.html#contacts",
    "project" : "None",
    "category" : "Generator",
    "language" : "Fortran",
    "license" : "UNKNOWN",
  },
  {
    "name" : "gosam_contrib",
    "fullname" : "gosam-contrib",
    "description" : "This package is a collection of tools by different authors. These tools are used by the GoSam package",
    "homepage" : "None",
    "contact" : "genser-dev@cern.ch",
    "project" : "None",
    "category" : "Generator",
    "language" : "None",
    "license" : "UNKNOWN",
  },
  {
    "name" : "gosam",
    "fullname" : "gosam",
    "description" : "general one-loop evaluator for matrix elements",
    "homepage" : "http://projects.hepforge.org/gosam/",
    "contact" : "http://projects.hepforge.org/gosam/",
    "project" : "None",
    "category" : "Generator",
    "language" : "Fortran",
    "license" : "GPL v3",
  },
  {
    "name" : "qd",
    "fullname" : "qd",
    "description" : "It provides numeric types of twice the precision of IEEE double and four times the precision of IEEE double", 
    "homepage" : "None",
    "contact" : "genser-dev@cern.ch",
    "project" : "None",
    "category" : "Generator",
    "language" : "Fortran",
    "license" : "BSD-LBNL-License",
  },
  {
    "name" : "blackhat",
    "fullname" : "blackhat",
    "description" : "None",
    "homepage" : "https://www.hepforge.org/downloads/blackhat",
    "contact" : "genser-dev@cern.ch",
    "project" : "None",
    "category" : "Generator",
    "language" : "None",
    "license" : "UNKNOWN",
  },
  {
    "name" : "sherpa-mpich2",
    "fullname" : "SHERPA-MC",
    "description" : "Sherpa is an event-generation framework for high-energy particle collisions.",
    "homepage" : "www.sherpa-mc.de",
    "contact" : "info@sherpa-mc.de",
    "project" : "None",
    "category" : "Generator",
    "language" : "Cpp",
    "license" : "GPLv3",
  },
  {
    "name" : "vincia",
    "fullname" : "vincia",
    "description" : "plugin to the high-energy physics event generator PYTHIA 8",
    "homepage" : "http://projects.hepforge.org/vincia/",
    "contact" : "genser-dev@cern.ch",
    "project" : "None",
    "category" : "Generator",
    "language" : "Cpp",
    "license" : "GPLv2",
  },
  {
    "name" : "fastnlo_toolkit",
    "fullname" : "fastnlo_toolkit",
    "description" : "Generic C++ linkable library and code to create, fill, read, and evaluate fastNLO v2 tables",
    "homepage" : "http://fastnlo.hepforge.org",
    "contact" : "genser-dev@cern.ch",
    "project" : "None",
    "category" : "Generator",
    "language" : "Cpp",
    "license" : "GPLv2",
  },
  {
    "name" : "libsvm",
    "fullname" : "libsvm",
    "description" : "a library for support vector machines",
    "homepage" : "http://www.csie.ntu.edu.tw/~cjlin/libsvm/",
    "contact" : "Peter Somogyi peter.somogyi@cern.ch",
    "project" : "None",
    "category" : "Math",
    "language" : "C",
    "license" : "GPL",
  },
  {
    "name" : "libtool",
    "fullname" : "libtool",
    "description" : "GNU libtool is a generic library support script",
    "homepage" : "http://www.gnu.org/software/libtool/",
    "contact" : "Libtool Support libtool@gnu.org",
    "project" : "None",
    "category" : "Tool",
    "language" : "C",
    "license" : "GPL",
  },
  {
    "name" : "libunwind",
    "fullname" : "libunwind",
    "description" : "C programming interface (API) to determine the call-chain of a program",
    "homepage" : "http://www.nongnu.org/libunwind/",
    "contact" : "Marco Cattaneo Marco.Cattaneo@cern.ch",
    "project" : "None",
    "category" : "Tool",
    "language" : "C",
    "license" : "X11",
  },
  {
    "name" : "lxml",
    "fullname" : "lxml",
    "description" : "Pythonic binding for the libxml2 and libxslt libraries",
    "homepage" : "http://codespeak.net/lxml/",
    "contact" : "Patricia Mendez patricia.mendez@cern.ch",
    "project" : "None",
    "category" : "SQL",
    "language" : "Python",
    "license" : "UNKNOWN",
  },
  {
    "name" : "matplotlib",
    "fullname" : "matplotlib",
    "description" : "a python 2D plotting library",
    "homepage" : "http://matplotlib.sourceforge.net/",
    "contact" : "Juan Palacios juan.palacios@cern.ch",
    "project" : "None",
    "category" : "Tool",
    "language" : "Python",
    "license" : "MATPLOTLIB",
  },
  {
    "name" : "minuit",
    "fullname" : "minuit",
    "description" : "Physics analysis tool for function minimization",
    "homepage" : "http://seal.web.cern.ch/seal/snapshot/work-packages/mathlibs/minuit/release/download.html",
    "contact" : "Lorenzo Moneta Lorenzo.Moneta@cern.ch",
    "project" : "None",
    "category" : "Tool",
    "language" : "Python",
    "license" : "UNKNOWN",
  },
  {
    "name" : "mock",
    "fullname" : "mock",
    "description" : "a tool to mimic interfaces to classes",
    "homepage" : "http://python-mock.sourceforge.net/",
    "contact" : "Juan Palacios juan.palacios@cern.ch",
    "project" : "None",
    "category" : "Tool",
    "language" : "Python",
    "license" : "BSD",
  },
  {
    "name" : "multiprocessing",
    "fullname" : "multiprocessing",
    "description" : "a python package which supports spawning of processes through the threading module",
    "homepage" : "http://pypi.python.org/pypi/multiprocessing",
    "contact" : "Pere Mato pere.mato@cern.ch",
    "project" : "None",
    "category" : "Tool",
    "language" : "Python",
    "license" : "BSD",
  },
  {
    "name" : "mysql",
    "fullname" : "mysql",
    "description" : "a SQL database management system",
    "homepage" : "http://www.mysql.com/",
    "contact" : "Andrea Valassi andrea.valassi@cern.ch",
    "project" : "false",
    "category" : "Database",
    "language" : "C",
    "license" : "MYSQL",
  },
  {
    "name" : "mysql_python",
    "fullname" : "mysql_python",
    "description" : "a python binding to mysql",
    "homepage" : "http://sourceforge.net/projects/mysql-python",
    "contact" : "Stefan Roiser stefan.roiser@cern.ch",
    "project" : "false",
    "category" : "Database",
    "language" : "Python",
    "license" : "UNKNOWN",
  },
  {
    "name" : "nose",
    "fullname" : "nose",
    "description" : "testing for python",
    "homepage" : "http://readthedocs.org/docs/nose",
    "contact" : "Jason Pellerin jpellerin.nose@gmail.com",
    "project" : "None",
    "category" : "Tool",
    "language" : "Python",
    "license" : "LGPL",
  },
  {
    "name" : "numpy",
    "fullname" : "numpy",
    "description" : "providing tools for scientific computing with Python",
    "homepage" : "http://numpy.scipy.org/",
    "contact" : "Juan Palacios juan.palacios@cern.ch",
    "project" : "None",
    "category" : "Tool",
    "language" : "Python",
    "license" : "BSD",
  },
  {
    "name" : "oracle",
    "fullname" : "oracle",
    "description" : "a database management system .",
    "homepage" : "http://www.oracle.com/index.html",
    "contact" : "Andrea Valassi andrea.valassi@cern.ch",
    "project" : "false",
    "category" : "Database",
    "language" : "C",
    "license" : "ORACLE",
  },
  {
    "name" : "photos++",
    "fullname" : "Photos++",
    "description" : "Monte Carlo event generator",
    "homepage" : "http://www.ph.unimelb.edu.au/~ndavidson/photos/doxygen/",
    "contact" : "z.was@cern.ch",
    "project" : "None",
    "category" : "Generator",
    "language" : "Cpp",
    "license" : "UKNOWN",
  },
  {
    "name" : "photos",
    "fullname" : "Photos",
    "description" : "Monte Carlo event generator",
    "homepage" : "http://www.ph.unimelb.edu.au/~ndavidson/photos/doxygen/",
    "contact" : "z.was@cern.ch",
    "project" : "None",
    "category" : "Generator",
    "language" : "Fortran",
    "license" : "UKNOWN",
  },
  {
    "name" : "processing",
    "fullname" : "processing",
    "description" : "a python package which supports spawning of processes through the threading module",
    "homepage" : "http://developer.berlios.de/projects/pyprocessing",
    "contact" : "Pere Mato pere.mato@cern.ch",
    "project" : "None",
    "category" : "Tool",
    "language" : "Python",
    "license" : "BSD",
  },
    {
    "name" : "protobuf",
    "fullname" : "Protocol Buffers",
    "description" : "Google's data interchange format",
    "homepage" : "https://github.com/google/protobuf",
    "contact" : "Pere Mato pere.mato@cern.ch",
    "project" : "None",
    "category" : "Tool",
    "language" : "Cpp",
    "license" : "Google",
  },
  {
    "name" : "py",
    "fullname" : "py",
    "description" : "tools which help with automated testing",
    "homepage" : "http://codespeak.net/py/dist/",
    "contact" : "Juan Palacios juan.palacios@cern.ch",
    "project" : "None",
    "category" : "Tool",
    "language" : "Python",
    "license" : "MIT",
  },
  {
    "name" : "pyanalysis",
    "fullname" : "pyanalysis",
    "description" : "Meta-package containing analysis packages",
    "homepage" : "none",
    "contact" : "Patricia Mendez patricia.mendez@cern.ch",
    "project" : "metapackage",
    "category" : "Tool",
    "language" : "Python",
    "license" : "UNKNOWN",
  },
  {
    "name" : "pydot",
    "fullname" : "pydot",
    "description" : "An interface for creating both directed and non directed graphs from Python",
    "homepage" : "http://dkbza.org/pydot.html",
    "contact" : "Patricia Mendez patricia.mendez@cern.ch",
    "project" : "None",
    "category" : "Graphics",
    "language" : "Python",
    "license" : "MIT",
  },
  {
    "name" : "pylint",
    "fullname" : "pylint",
    "description" : "python code static checker",
    "homepage" : "http://www.logilab.org/project/pylint",
    "contact" : "Sylvain Thenault sylvain.thenault@logilab.fr",
    "project" : "None",
    "category" : "Tool",
    "language" : "Python",
    "license" : "GPL",
  },
  {
    "name" : "pyminuit",
    "fullname" : "pyminuit",
    "description" : "Minuit numerical function minimization in Python",
    "homepage" : "http://code.google.com/p/pyminuit/",
    "contact" : "Lorenzo Moneta Lorenzo.Moneta@cern.ch",
    "project" : "None",
    "category" : "Tool",
    "language" : "Python",
    "license" : "UNKNOWN",
  },
  {
    "name" : "pyparsing",
    "fullname" : "pyparsing",
    "description" : "is a general parsing module for Python",
    "homepage" : "http://sourceforge.net/projects/pyparsing/",
    "contact" : "Patricia Mendez patricia.mendez@cern.ch",
    "project" : "None",
    "category" : "Tool",
    "language" : "Python",
    "license" : "MIT",
  },
  {
    "name" : "pyqt",
    "fullname" : "pyqt",
    "description" : "a set of Python bindings for Qt",
    "homepage" : "http://www.riverbankcomputing.co.uk/pyqt",
    "contact" : "Patricia Mendez patricia.mendez@cern.ch",
    "project" : "false",
    "category" : "Graphics",
    "language" : "Python",
    "license" : "GPL",
  },
  {
    "name" : "pytest",
    "fullname" : "pytest",
    "description" : "cross-project testing tool for Python",
    "homepage" : "http://pytest.org",
    "contact" : "Holger Krekel holger@merlinux.eu",
    "project" : "None",
    "category" : "Tool",
    "language" : "Python",
    "license" : "MIT",
  },
  {
    "name" : "pythia6",
    "fullname" : "Pythia6",
    "description" : "Monte Carlo event generator",
    "homepage" : "https://pythia6.hepforge.org/",
    "contact" : "pythia6@projects.hepforge.org",
    "project" : "None",
    "category" : "Generator",
    "language" : "Fortran",
    "license" : "UKNOWN",
  },
  {
    "name" : "pythia8",
    "fullname" : "Pythia8",
    "description" : "Monte Carlo event generator",
    "homepage" : "http://home.thep.lu.se/~torbjorn/Pythia.html",
    "contact" : "Torbjorn Sjostrand torbjorn@thep.lu.se",
    "project" : "None",
    "category" : "Generator",
    "language" : "Cpp",
    "license" : "GPL2",
  },
  {
    "name" : "Python",
    "fullname" : "Python",
    "description" : "A dynamic, object oriented multi platform scripting language.",
    "homepage" : "http://www.python.org/",
    "contact" : "Stefan Roiser stefan.roiser@cern.ch",
    "project" : "None",
    "category" : "Tool",
    "language" : "Python",
    "license" : "Python",
  },
  {
    "name" : "pyxml",
    "fullname" : "pyxml",
    "description" : "a collection of libraries to process XML with Python",
    "homepage" : "http://pyxml.sourceforge.net",
    "contact" : "Thomas Doherty t.doherty@physics.gla.ac.uk",
    "project" : "None",
    "category" : "XML",
    "language" : "Python",
    "license" : "CNRI",
  },
  {
    "name" : "Qt",
    "fullname" : "Qt",
    "description" : "A graphical widget tool kit for GUI development",
    "homepage" : "http://www.trolltech.com/products/qt",
    "contact" : "Thomas Kittelmann thomas.kittelmann@cern.ch",
    "project" : "None",
    "category" : "Graphics",
    "language" : "Cpp",
    "license" : "GPL",
  },
  {
    "name" : "Qt5",
    "fullname" : "Qt",
    "description" : "A graphical widget tool kit for GUI development",
    "homepage" : "http://www.trolltech.com/products/qt",
    "contact" : "Thomas Kittelmann thomas.kittelmann@cern.ch",
    "project" : "None",
    "category" : "Graphics",
    "language" : "Cpp",
    "license" : "GPL",
  },

  {
    "name" : "qwt",
    "fullname" : "qwt",
    "description" : "Qt Widgets for Technical Applications",
    "homepage" : "http://qwt.sourceforge.net/",
    "contact" : "Thomas Kittelmann thomas.kittelmann@cern.ch",
    "project" : "None",
    "category" : "Graphics",
    "language" : "Cpp",
    "license" : "LGPL",
  },
  {
    "name" : "scipy",
    "fullname" : "scipy",
    "description" : "library of tools for scientific computing with python",
    "homepage" : "http://www.scipy.org/",
    "contact" : "Juan Palacios juan.palacios@cern.ch",
    "project" : "None",
    "category" : "Tool",
    "language" : "Python",
    "license" : "BSD",
  },
  {
    "name" : "setuptools",
    "fullname" : "setuptools",
    "description" : "Python toolkit for package handling",
    "homepage" : "http://pypi.python.org/pypi/setuptools/",
    "contact" : "Patricia Mendez patricia.mendez@cern.ch",
    "project" : "None",
    "category" : "Tool",
    "language" : "Python",
    "license" : "PYTHON",
  },
  {
    "name" : "sherpa",
    "fullname" : "Sherpa",
    "description" : "Monte Carlo event generator",
    "homepage" : "https://sherpa.hepforge.org/trac/wiki",
    "contact" : "info@sherpa-mc.de",
    "project" : "None",
    "category" : "Generator",
    "language" : "Cpp",
    "license" : "UKNOWN",
  },
  {
    "name" : "sip",
    "fullname" : "sip",
    "description" : "a python binding generator for C/C++",
    "homepage" : "http://www.riverbankcomputing.co.uk/sip/",
    "contact" : "Patricia Mendez patricia.mendez@cern.ch",
    "project" : "false",
    "category" : "Tool",
    "language" : "Python",
    "license" : "UNKNOWN",
  },
  {
    "name" : "soqt",
    "fullname" : "soqt",
    "description" : "A library prviding glue between the Inventor 3D visualisation and Qt",
    "homepage" : "http://coin3d.org/lib/soqt/",
    "contact" : "Thomas Kittelmann thomas.kittelmann@cern.ch",
    "project" : "None",
    "category" : "Graphics",
    "language" : "Cpp",
    "license" : "GPL",
  },
  {
    "name" : "sqlalchemy",
    "fullname" : "sqlalchemy",
    "description" : "SQLAlchemy is the Python SQL toolkit and Object Relational Mapper that gives application developers the full power and flexibility of SQL.",
    "homepage" : "http://www.sqlalchemy.org/",
    "contact" : "Peter Waller peter.waller@gmail.com",
    "project" : "None",
    "category" : "SQL",
    "language" : "Python",
    "license" : "MIT",
  },
  {
    "name" : "sqlite",
    "fullname" : "sqlite",
    "description" : "a C library that implements a SQL database engine",
    "homepage" : "http://www.sqlite.org/",
    "contact" : "Zhen Xie Zhen.Xie@cern.ch",
    "project" : "false",
    "category" : "Database",
    "language" : "C",
    "license" : "SQLITE",
  },
  {
    "name" : "stomppy",
    "fullname" : "stomp.py",
    "description" : "Python client library for accessing messaging servers using the STOMP protocol",
    "homepage" : "http://code.google.com/p/stomppy/",
    "contact" : "Jason Briggs jasonrbriggs@gmail.com",
    "project" : "None",
    "category" : "Tool",
    "language" : "Python",
    "license" : "APACHE",
  },
  {
    "name" : "storm",
    "fullname" : "storm",
    "description" : "Object-relational mapper (ORM) for Python developed at Canonical",
    "homepage" : "https://storm.canonical.com/",
    "contact" : "Juan Palacios juan.palacios@cern.ch",
    "project" : "None",
    "category" : "Tool",
    "language" : "Python",
    "license" : "LGPL",
  },
  {
    "name" : "swig",
    "fullname" : "swig",
    "description" : "a tool that connects C/C++ programs with high-level programming languages.",
    "homepage" : "http://www.swig.org/",
    "contact" : "Stefan Roiser stefan.roiser@cern.ch",
    "project" : "None",
    "category" : "Tool",
    "language" : "C",
    "license" : "APACHE",
  },
  {
    "name" : "sympy",
    "fullname" : "sympy",
    "description" : "Python library for symbolic mathematics",
    "homepage" : "http://code.google.com/p/sympy/ ",
    "contact" : "Witold Pokorsky Witold.Pokorski@cern.ch",
    "project" : "None",
    "category" : "Math",
    "language" : "Python",
    "license" : "BSD",
  },
  {
    "name" : "tauola++",
    "fullname" : "Tauola++",
    "description" : "Monte Carlo event generator",
    "homepage" : "http://www.ph.unimelb.edu.au/~ndavidson/tauola/doxygen/",
    "contact" : "z.was@cern.ch",
    "project" : "None",
    "category" : "Generator",
    "language" : "Cpp",
    "license" : "UKNOWN",
  },
  {
    "name" : "tauola",
    "fullname" : "Tauola",
    "description" : "Monte Carlo event generator",
    "homepage" : "http://www.ph.unimelb.edu.au/~ndavidson/tauola/doxygen/",
    "contact" : "z.was@cern.ch",
    "project" : "None",
    "category" : "Generator",
    "language" : "Fortran",
    "license" : "UKNOWN",
  },
  {
    "name" : "tbb",
    "fullname" : "tbb",
    "description" : "parallelism in C++ for optimal multi-core performance",
    "homepage" : "http://threadingbuildingblocks.org/",
    "contact" : "Patricia Mendez patricia.mendez@cern.ch",
    "project" : "false",
    "category" : "Tool",
    "language" : "Cpp",
    "license" : "GPL",
  },
  {
    "name" : "thepeg",
    "fullname" : "ThePEG",
    "description" : "Monte Carlo event generator",
    "homepage" : "http://home.thep.lu.se/ThePEG/",
    "contact" : "leif@thep.lu.se",
    "project" : "None",
    "category" : "Generator",
    "language" : "Cpp",
    "license" : "UKNOWN",
  },
  {
    "name" : "uuid",
    "fullname" : "uuid",
    "description" : "a universal unique identifier library",
    "homepage" : "http://sourceforge.net/projects/e2fsprogs/",
    "contact" : "Patricia Mendez patricia.mendez@cern.ch",
    "project" : "false",
    "category" : "Other",
    "language" : "Cpp",
    "license" : "BSD",
  },
  {
    "name" : "valgrind",
    "fullname" : "valgrind",
    "description" : "a tool for building dynamic analysis tools (e.g. memory management, threading)",
    "homepage" : "http://www.valgrind.org",
    "contact" : "Patricia Mendez patricia.mendez@cern.ch",
    "project" : "None",
    "category" : "Tool",
    "language" : "C",
    "license" : "GPL",
  },
  {
    "name" : "xqilla",
    "fullname" : "xqilla",
    "description" : "XQilla is an XQuery and XPath 2 library and command line utility ",
    "homepage" : "http://xqilla.sourceforge.net/HomePage",
    "contact" : "Patricia Mendez patricia.mendez@cern.ch",
    "project" : "None",
    "category" : "XML",
    "language" : "Cpp",
    "license" : "APACHE",
  },
  {
    "name" : "xrootd",
    "fullname" : "xrootd",
    "description" : "IO Library",
    "homepage" : "http://xrootd.slac.stanford.edu/",
    "contact" : "Gerardo Ganis gerardo.ganis@cern.ch",
    "project" : "false",
    "category" : "IO",
    "language" : "C++",
    "license" : "custom",
  },
  {
    "name"        : "powheg-box",
    "fullname"    : "powheg-box",
    "description" : "The POWHEG BOX is a general computer framework for implementing NLO calculations in shower Monte Carlo programs according to the POWHEG method.",
    "homepage"    : "http://powhegbox.mib.infn.it/",
    "contact"     : "Paolo Nason Paolo.Nason@mib.infn.it",
    "project"     : "None",
    "category"    : "Generator",
    "language"    : "Fortran",
    "license"     : "UNKNOWN",
  },
  {
    "name"        : "lhapdfsets",
    "fullname"    : "lhapdfsets",
    "description" : "Les Houches Accord PDF Interface (PDFsets)",
    "homepage"    : "https://lhapdf.hepforge.org/",
    "contact"     : "lhapdf@projects.hepforge.org",
    "project"     : "None",
    "category"    : "Generator",
    "language"    : "Fortran",
    "license"     : "UNKNOWN",
  },
  {
    "name"        : "lcgenv",
    "fullname"    : "lcgenv",
    "description" : "None",
    "homepage"    : "None",
    "contact"     : "genser-dev@cern.ch",
    "project"     : "None",
    "category"    : "Tool",
    "language"    : "None",
    "license"     : "UNKNOWN",
  },
  {
    "name"        : "hepmc3",
    "fullname"    : "hepmc3",
    "description" : "Container for the MC event information coming from a MC event",
    "homepage"    : "http://hepmc.web.cern.ch/hepmc/",
    "contact"     : "genser-dev@cern.ch",
    "project"     : "SFT",
    "category"    : "Tool",
    "language"    : "Cpp",
    "license"     : "UNKNOWN",
  },
  {
    "name"        : "agile",
    "fullname"    : "Agile",
    "description" : "A Generator Interface Library",
    "homepage"    : "http://agile.hepforge.org",
    "contact"     : "rivet@projects.hepforge.org",
    "project"     : "None",
    "category"    : "Generator",
    "language"    : "C++",
    "license"     : "UNKNOWN",
  },
  {
    "name"        : "rivet",
    "fullname"    : "Rivet",
    "description" : "(Robust Independent Validation of Experiment and Theory) is a toolkit for validation of Monte Carlo event generators.",
    "homepage"    : "http://rivet.hepforge.org/",
    "contact"     : "rivet@projects.hepforge.org",
    "project"     : "None",
    "category"    : "Generator",
    "language"    : "C++",
    "license"     : "UNKNOWN",
  },
  {
    "name"        : "hepmcanalysis",
    "fullname"    : "HepMCanalysis",
    "description" : "A tool for generator validation and comparisons",
    "homepage"    : "http://hepmcanalysistool.desy.de/",
    "contact"     : "Wolfgang Ehrenfeld wolfgang.ehrenfeld@desy.de",
    "project"     : "Tool",
    "category"    : "Generator",
    "language"    : "C++",
    "license"     : "UNKNOWN",
  },
  {
    "name"        : "mctester",
    "fullname"    : "MCtester",
    "description" : "An universal tool for comparisons of Monte Carlo predictions in High Energy Physics",
    "homepage"    : "http://hibiscus.if.uj.edu.pl/~przedzinski/",
    "contact"     : "Tomasz Przedzinski Tomasz.Przedzinski@cern.ch",
    "project"     : "None",
    "category"    : "Generator",
    "language"    : "C++",
    "license"     : "UNKNOWN",
  },
  {
    "name"        : "starlight",
    "fullname"    : "Starlight",
    "description" : "STARlight is a Monte Carlo that simulates two-photon and photon-Pomeron interactions between relativistic nuclei and protons.",
    "homepage"    : "http://starlight.hepforge.org",
    "contact"     : "None",
    "project"     : "None",
    "category"    : "Generator",
    "language"    : "C++",
    "license"     : "UNKNOWN",
  },
  {
    "name"        : "crmc",
    "fullname"    : "Crmc",
    "description" : "High energy ion collision MC",
    "homepage"    : "https://www.auger.de/~rulrich/crmc.html",
    "contact"     : "Tanguy Pierog Tanguy.Pierog@kit.edu",
    "project"     : "None",
    "category"    : "Generator",
    "language"    : "C++",
    "license"     : "UNKNOWN",
  },
  {
    "name"        : "yoda",
    "fullname"    : "yoda",
    "description" : "Yet more Objects for Data Analysis",
    "homepage"    : "http://yoda.hepforge.org",
    "contact"     : "yoda@projects.hepforge.org",
    "project"     : "None",
    "category"    : "Generator",
    "language"    : "C++",
    "license"     : "UNKNOWN",
  },
  {
    "name"        : "hydjet",
    "fullname"    : "Hydjet",
    "description" : "event generator to simulate jet production, jet quenching and flow effects in ultrarelativistic heavy ion AA collisions ",
    "homepage"    : "http://cern.ch/lokhtin/hydro/hydjet.html",
    "contact"     : "Igor Lokhtin Igor.Lokhtin@cern.ch",
    "project"     : "None",
    "category"    : "Generator",
    "language"    : "Fortran",
    "license"     : "UNKNOWN",
  },
  {
    "name"        : "jimmy",
    "fullname"    : "Jimmy",
    "description" : "Multiparton Interactions in HERWIG",
    "homepage"    : "http://jimmy.hepforge.org/",
    "contact"     : "Jon Butterworth J.Butterworth@ucl.ac.uk",
    "project"     : "None",
    "category"    : "Generator",
    "language"    : "Fortran",
    "license"     : "UNKNOWN",
  },
  {
    "name"        : "hydjet++",
    "fullname"    : "Hydjet++",
    "description" : "event generator to simulate jet production, jet quenching and flow effects in ultrarelativistic heavy ion AA collisions ",
    "homepage"    : "http://cern.ch/lokhtin/hydro/hydjet.html",
    "contact"     : "Igor Lokhtin Igor.Lokhtin@cern.ch",
    "project"     : "None",
    "category"    : "Generator",
    "language"    : "C++",
    "license"     : "UNKNOWN",
  },
  {
    "name"        : "alpgen",
    "fullname"    : "AlpGen",
    "description" : "A collection of codes for the generation of multi-parton processes in hadronic collisions.",
    "homepage"    : "http://mlm.home.cern.ch/mlm/alpgen/",
    "contact"     : "Michelangelo Mangano Michelangelo.Mangano@cern.ch",
    "project"     : "None",
    "category"    : "Generator",
    "language"    : "Fortran",
    "license"     : "UNKNOWN",
  },
  {
    "name"        : "pyquen",
    "fullname"    : "Pyquen",
    "description" : "PYQUEN is event generator for simulation of rescattering, radiative and collisional energy loss of hard partons in expanding quark-gluon plasma created in ultrarelativistic heavy ion AA collisions (implemented as modification of standard pythia6.4xx jet event) ",
    "homepage"    : "http://lokhtin.web.cern.ch/lokhtin/pyquen/",
    "contact"     : "Igor Lokhtin Igor.Lokhtin@cern.ch",
    "project"     : "None",
    "category"    : "Generator",
    "language"    : "Fortran",
    "license"     : "UNKNOWN",
  },
  {
    "name"        : "baurmc",
    "fullname"    : "BaurMC",
    "description" : "Baur's Monte Carlo package for simulating W+ gamma production at hadron colliders provides full electroweak calculation upto O(alpha) and contains higher order QCD corrections as well. ",
    "homepage"    : "https://twiki.cern.ch/twiki/bin/view/Main/DevdattaMajumder",
    "contact"     : "Devdatta Majumder Devdatta.Majumder@cern.ch",
    "project"     : "None",
    "category"    : "Generator",
    "language"    : "Fortran",
    "license"     : "UNKNOWN",
  },
  {
    "name"        : "professor",
    "fullname"    : "Professor",
    "description" : "tuning tool for Monte Carlo event generators",
    "homepage"    : "http://professor.hepforge.org/",
    "contact"     : "Andy Buckley andy.buckley@cern.ch",
    "project"     : "None",
    "category"    : "Generator",
    "language"    : "Python",
    "license"     : "UNKNOWN",
  },
  {
    "name"        : "hijing",
    "fullname"    : "Hijing",
    "description" : "Heavy Ion Jet Interaction Generator",
    "homepage"    : "http://www.star.bnl.gov/public/comp/simu/evgen/hij.html",
    "contact"     : "Xin-Nian Wang xnwang@lbl.gov",
    "project"     : "None",
    "category"    : "Generator",
    "language"    : "Fortran",
    "license"     : "UNKNOWN",
  },
  {
    "name" : "is_ifce",
    "fullname" : "is_ifce",
    "description" : "None",
    "homepage" : "None",
    "contact" : "Oliver Keeble oliver.keeble@cern.ch",
    "project" : "None",
    "category" : "None",
    "language" : "None",
    "license" : "UNKNOWN",
  },
  {
    "name" : "CLHEP",
    "fullname" : "CLHEP",
    "description" : "A Class Library for High Energy Physics",
    "homepage" : "http://cern.ch/clhep",
    "contact" : "clhep-editors@cern.ch",
    "project" : "None",
    "category" : "Tool",
    "language" : "None",
    "license" : "UNKNOWN",
  },
  {
    "name" : "WMS",
    "fullname" : "WMS",
    "description" : "None",
    "homepage" : "None",
    "contact" : "None",
    "project" : "None",
    "category" : "None",
    "language" : "None",
    "license" : "UNKNOWN",
  },
  {
    "name" : "pygraphics",
    "fullname" : "pygraphics",
    "description" : "PyGraphics provides a set of easy-to-use procedural media manipulation tools and is intended for new programmers. It is based on a Jython library developed by Mark Guzdial at Georgia Tech",
    "homepage" : "https://pypi.python.org/pypi/PyGraphics",
    "contact" : "Mark Guzdial mark.guzdial@cc.gatech.edu",
    "project" : "None",
    "category" : "Tool",
    "language" : "Python",
    "license" : "UNKNOWN",
  },
  {
    "name" : "FTS",
    "fullname" : "FTS",
    "description" : "None",
    "homepage" : "None",
    "contact" : "Oliver Keeble oliver.keeble@cern.ch",
    "project" : "None",
    "category" : "None",
    "language" : "None",
    "license" : "UNKNOWN",
  },
  {
    "name" : "dm_util",
    "fullname" : "dm_util",
    "description" : "None",
    "homepage" : "None",
    "contact" : "Oliver Keeble oliver.keeble@cern.ch",
    "project" : "None",
    "category" : "None",
    "language" : "None",
    "license" : "UNKNOWN",
  },
  {
    "name" : "cream",
    "fullname" : "cream",
    "description" : "None",
    "homepage" : "None",
    "contact" : "Oliver Keeble oliver.keeble@cern.ch",
    "project" : "None",
    "category" : "None",
    "language" : "None",
    "license" : "UNKNOWN",
  },
  {
    "name" : "voms",
    "fullname" : "voms",
    "description" : "None",
    "homepage" : "http://glite.web.cern.ch/glite/",
    "contact" : "Oliver Keeble oliver.keeble@cern.ch",
    "project" : "None",
    "category" : "Grid",
    "language" : "C",
    "license" : "UNKNOWN",
  },
  {
    "name" : "pacparser",
    "fullname" : "pacparser",
    "description" : "None",
    "homepage" : "None",
    "contact" : "Patricia Mendez patricia.mendez@cern.ch",
    "project" : "None",
    "category" : "None",
    "language" : "None",
    "license" : "UNKNOWN",
  },
  {
    "name" : "pygsi",
    "fullname" : "pygsi",
    "description" : "None",
    "homepage" : "None",
    "contact" : "Oliver Keeble oliver.keeble@cern.ch",
    "project" : "None",
    "category" : "None",
    "language" : "None",
    "license" : "UNKNOWN",
  },
  {
    "name" : "lb",
    "fullname" : "lb",
    "description" : "None",
    "homepage" : "None",
    "contact" : "Oliver Keeble oliver.keeble@cern.ch",
    "project" : "None",
    "category" : "None",
    "language" : "None",
    "license" : "UNKNOWN",
  },
  {
    "name" : "gfal2",
    "fullname" : "gfal2",
    "description" : "None",
    "homepage" : "None",
    "contact" : "Oliver Keeble oliver.keeble@cern.ch",
    "project" : "None",
    "category" : "None",
    "language" : "None",
    "license" : "UNKNOWN",
  },
  {
    "name" : "dcap",
    "fullname" : "dcap",
    "description" : "None",
    "homepage" : "None",
    "contact" : "Oliver Keeble oliver.keeble@cern.ch",
    "project" : "None",
    "category" : "None",
    "language" : "None",
    "license" : "UNKNOWN",
  },
  {
    "name" : "XercesC",
    "fullname" : "XercesC",
    "description" : "A validating XML parser written in a portable subset of C++ by the Apache project",
    "homepage" : "http://xerces.apache.org",
    "contact" : "http://xerces.apache.org/mail/c-dev/",
    "project" : "None",
    "category" : "XML",
    "language" : "C++",
    "license" : "Apache",
  },
  {
    "name" : "cmaketools",
    "fullname" : "cmaketools",
    "description" : "None",
    "homepage" : "None",
    "contact" : "Patricia Mendez patricia.mendez@cern.ch",
    "project" : "None",
    "category" : "Tool",
    "language" : "None",
    "license" : "GPL",
  },
  {
    "name" : "gridftp_ifce",
    "fullname" : "gridftp_ifce",
    "description" : "None",
    "homepage" : "None",
    "contact" : "Oliver Keeble oliver.keeble@cern.ch",
    "project" : "None",
    "category" : "None",
    "language" : "None",
    "license" : "UNKNOWN",
  },
  {
    "name" : "QMtest",
    "fullname" : "QMtest",
    "description" : "A general purpose testing framework",
    "homepage" : "https://github.com/MentorEmbedded/qmtest",
    "contact" : "Patricia Mendez patricia.mendez@cern.ch",
    "project" : "None",
    "category" : "Tools",
    "language" : "C++",
    "license" : "GPL",
  },
  {
    "name" : "pytools",
    "fullname" : "pytools",
    "description" : "Pytools is a collection package",
    "homepage" : "None",
    "contact" : "Patricia Mendez patricia.mendez@cern.ch",
    "project" : "None",
    "category" : "None",
    "language" : "Python",
    "license" : "various",
  },
  {
    "name" : "FTS3",
    "fullname" : "FTS3",
    "description" : "None",
    "homepage" : "None",
    "contact" : "Oliver Keeble oliver.keeble@cern.ch",
    "project" : "None",
    "category" : "None",
    "language" : "None",
    "license" : "UNKNOWN",
  },
  {
    "name" : "epel",
    "fullname" : "epel",
    "description" : "None",
    "homepage" : "None",
    "contact" : "Oliver Keeble oliver.keeble@cern.ch",
    "project" : "None",
    "category" : "None",
    "language" : "None",
    "license" : "UNKNOWN",
  },
  {
    "name" : "neurobayes_expert",
    "fullname" : "neurobayes_expert",
    "description" : "Neural network package",
    "homepage" : "http://neurobayes.phi-t.de",
    "contact" : "Steffen Roecker steffen.roecker@blue-yonder.com",
    "project" : "None",
    "category" : "Tool",
    "language" : "C",
    "license" : "commercial",
  },
  {
    "name" : "vdt",
    "fullname" : "vdt",
    "description" : "vdt (VectoriseD maTh) C++ Fast Mathematical Library",
   "homepage" : "https://svnweb.cern.ch/trac/vdt",
    "contact" : "Danilo Piparo Danilo.Piparo@cern.ch",
    "project" : "None",
    "category" : "Tool",
    "language" : "None",
    "license" : "LGPL3",
  },
  {
    "name" : "srm_ifce",
    "fullname" : "srm_ifce",
    "description" : "None",
    "homepage" : "None",
    "contact" : "Oliver Keeble oliver.keeble@cern.ch",
    "project" : "None",
    "category" : "None",
    "language" : "None",
    "license" : "UNKNOWN",
  },
  {
    "name" : "neurobayes",
    "fullname" : "neurobayes_expert",
    "description" : "Neural network package",
    "homepage" : "http://neurobayes.phi-t.de",
    "contact" : "Steffen Roecker steffen.roecker@blue-yonder.com",
    "project" : "None",
    "category" : "Tool",
    "language" : "C",
    "license" : "commercial",
  },
  {
    "name" : "yamlcpp",
    "fullname" : "yamlcpp",
    "description" : "A YAML parser and emitter for C++",
    "homepage" : "http://code.google.com/p/yaml-cpp/",
    "contact" : "Patricia Mendez patricia.mendez@cern.ch",
    "project" : "None",
    "category" : "Tool",
    "language" : "C++",
    "license" : "MIT",
  },
  {
    "name" : "py2neo",
    "fullname" : "py2neo",
    "description" : "None",
    "homepage" : "None",
    "contact" : "Patricia Mendez patricia.mendez@cern.ch",
    "project" : "None",
    "category" : "None",
    "language" : "None",
    "license" : "UNKNOWN",
  },
  {
    "name" : "CppUnit",
    "fullname" : "CppUnit",
    "description" : "a C++ unit testing framework",
    "homepage" : "http://cppunit.sourceforge.net/cppunit-wiki",
    "contact" : "Patricia Mendez patricia.mendez@cern.ch",
    "project" : "None",
    "category" : "Tool",
    "language" : "C++",
    "license" : "GPL",
  },
  {
    "name" : "gridsite",
    "fullname" : "gridsite",
    "description" : "None",
    "homepage" : "None",
    "contact" : "Oliver Keeble oliver.keeble@cern.ch",
    "project" : "None",
    "category" : "None",
    "language" : "None",
    "license" : "UNKNOWN",
  },
  {
    "name" : "cython",
    "fullname" : "cython",
    "description" : "Tool for writing C-Extensions for python",
    "homepage" : "http://cython.org",
    "contact" : "Stefan Behnel consulting@behnel.de",
    "project" : "None",
    "category" : "Tool",
    "language" : "Python",
    "license" : "UNKNOWN",
  },
  {
    "name" : "crmcold",
    "fullname" : "crmcold",
    "description" : "High energy ion collision MC",
    "homepage" : "https://www.auger.de/~rulrich/crmc.html",
    "contact" : "Tanguy Pierog Tanguy.Pierog@kit.edu",
    "project" : "None",
    "category" : "Generator",
    "language" : "C++",
    "license" : "UNKNOWN",
  },
  {
    "name" : "julia",
    "fullname" : "Julia",
    "description" : "High-level, high-performance dynamic programming language for technical computing",
    "homepage" : "http://julialang.org",
    "contact" : "Pere Mato pere.mato@cern.ch",
    "project" : "None",
    "category" : "Language",
    "language" : "Julia",
    "license" : "MIT",
  },
    {
    "name" : "ijulia",
    "fullname" : "IJulia",
    "description" : "Julia kernel and magics for Jupyter",
    "homepage" : "https://github.com/JuliaLang/IJulia.jl",
    "contact" : "Pere Mato pere.mato@cern.ch",
    "project" : "None",
    "category" : "Tool",
    "language" : "Julia",
    "license" : "MIT",
  },
  {
    "name" : "theao",
    "fullname" : "Theano",
    "description" : "Python library that allows you to define, optimize, and evaluate mathematical expressions involving multi-dimensional arrays efficiently.",
    "homepage" :"http://deeplearning.net/software/theano/",
    "contact" : "Lorenzo Moneta lorenzo.moneta@cern.ch",
    "project" : "None",
    "category" : "Tool",
    "language" : "Python",
    "license" : "Theano",
  },
  {
    "name" : "pydot_ng",
    "fullname" : "pydot-ng",
    "description" : "Python interface to Graphviz's Dot",
    "homepage" : "https://pypi.python.org/pypi/pydot-ng",
    "contact" : "Patricia Mendez patricia.mendez@cern.ch",
    "project" : "None",
    "category" : "Graphics",
    "language" : "Python",
    "license" : "MIT",
  },
  {
    "name" : "keras",
    "fullname" : "Keras",
    "description" : "Deep Learning library for Theano and TensorFlow",
    "homepage" :"https://keras.io",
    "contact" : "Lorenzo Moneta lorenzo.moneta@cern.ch",
    "project" : "None",
    "category" : "Tool",
    "language" : "Python",
    "license" : "MIT",
  },
  {
    "name" : "db",
    "fullname" : "Berkeley DB",
    "description" : "Oracle Berkeley DB",
    "homepage" :"http://www.oracle.com/technetwork/database/database-technologies/berkeleydb",
    "contact" : "Pere Mato pere.mato@cern.ch",
    "project" : "None",
    "category" : "Tool",
    "language" : "C",
    "license" : "Berkeley DB License",
  },
  {
    "name" : "jupyter_contrib_nbextensions",
    "fullname" : "Jupyter notebook extensions",
    "description" : "Collection of extensions that add functionality to the Jupyter notebook",
    "homepage" :"https://github.com/ipython-contrib/jupyter_contrib_nbextensions",
    "contact" : "Pere Mato pere.mato@cern.ch",
    "project" : "None",
    "category" : "Tool",
    "language" : "Python",
    "license" : "BSD",
  },
  {
    "name" : "jupyter_contrib_core",
    "fullname" : "Jupyter contrib core",
    "description" : "Collection of extensions that add functionality to the Jupyter notebook",
    "homepage" :"https://github.com/ipython-contrib/jupyter_contrib_nbextensions",
    "contact" : "Pere Mato pere.mato@cern.ch",
    "project" : "None",
    "category" : "Tool",
    "language" : "Python",
    "license" : "BSD",
  },
  {
    "name" : "jupyter_nbextensions_configurator",
    "fullname" : "Jupyter nbextensions configurator",
    "description" : "Collection of extensions that add functionality to the Jupyter notebook",
    "homepage" :"https://github.com/ipython-contrib/jupyter_contrib_nbextensions",
    "contact" : "Pere Mato pere.mato@cern.ch",
    "project" : "None",
    "category" : "Tool",
    "language" : "Python",
    "license" : "BSD",
  },
  {
    "name" : "psutil",
    "fullname" : "psutil",
    "description" : "Cross-platform library for retrieving information onrunning processes and system utilization (CPU, memory, disks, network)in Python",
    "homepage" :"https://github.com/giampaolo/psutil",
    "contact" : "Pere Mato pere.mato@cern.ch",
    "project" : "None",
    "category" : "Tool",
    "language" : "Python",
    "license" : "BSD",
  },
  {
    "name" : "dill",
    "fullname" : "dill",
    "description" : "Dill extends python’s ‘pickle’ module for serializing and de-serializing python objects",
    "homepage" :"https://pypi.python.org/pypi/dill",
    "contact" : "Pere Mato pere.mato@cern.ch",
    "project" : "None",
    "category" : "Tool",
    "language" : "Python",
    "license" : "BSD",
  },
  {
    "name" : "pox",
    "fullname" : "pox",
    "description" : "Utilities for filesystem exploration and automated builds",
    "homepage" :"https://pypi.python.org/pypi/pox",
    "contact" : "Pere Mato pere.mato@cern.ch",
    "project" : "None",
    "category" : "Tool",
    "language" : "Python",
    "license" : "BSD",
  },
  {
    "name" : "multiprocess",
    "fullname" : "multiprocess",
    "description" : "Multiprocess is a fork of multiprocessing, and is developed as part of pathos",
    "homepage" :"https://pypi.python.org/pypi/multiprocess",
    "contact" : "Pere Mato pere.mato@cern.ch",
    "project" : "None",
    "category" : "Tool",
    "language" : "Python",
    "license" : "BSD",
  },
  {
    "name" : "ppft",
    "fullname" : "ppft",
    "description" : "Distributed and parallel python (fork of Parallel Pyyhon)",
    "homepage" :"https://pypi.python.org/pypi/ppft",
    "contact" : "Pere Mato pere.mato@cern.ch",
    "project" : "None",
    "category" : "Tool",
    "language" : "Python",
    "license" : "BSD",
  }
]
